\relax 
\citation{Oort}
\citation{Zwicky}
\citation{Rubin}
\@writefile{toc}{\contentsline {section}{\numberline {1.1}{Early Evidence}}{2}{section.1.1}}
\newlabel{sec:evidence}{{1.1}{2}{\@fmttocentry {Early Evidence}\relax }{section.1.1}{}}
\@writefile{toc}{\contentsline {subsection}{\numberline {1.1.1}{Evidence for Dark Matter}}{2}{subsection.1.1.1}}
\@writefile{toc}{\contentsline {subsubsection}{{Rotation Speeds of Galaxies}}{2}{section*.10}}
\@setckpt{Chapter1}{
\setcounter{page}{3}
\setcounter{equation}{0}
\setcounter{enumi}{0}
\setcounter{enumii}{0}
\setcounter{enumiii}{0}
\setcounter{enumiv}{0}
\setcounter{footnote}{0}
\setcounter{mpfootnote}{0}
\setcounter{@oldsecnumdepth}{2}
\setcounter{part}{0}
\setcounter{chapter}{1}
\setcounter{section}{1}
\setcounter{subsection}{1}
\setcounter{subsubsection}{0}
\setcounter{paragraph}{0}
\setcounter{subparagraph}{0}
\setcounter{figure}{0}
\setcounter{table}{0}
\setcounter{float@type}{8}
\setcounter{LT@tables}{0}
\setcounter{LT@chunks}{0}
\setcounter{NAT@ctr}{0}
\setcounter{Item}{0}
\setcounter{Hfootnote}{0}
\setcounter{bookmark@seq@number}{11}
\setcounter{Program}{0}
\setcounter{section@level}{3}
}
