\BOOKMARK [0][-]{chapter*.1}{\376\377\000A\000b\000s\000t\000r\000a\000c\000t}{}% 1
\BOOKMARK [0][-]{chapter*.3}{\376\377\000T\000a\000b\000l\000e\000\040\000o\000f\000\040\000C\000o\000n\000t\000e\000n\000t\000s}{}% 2
\BOOKMARK [0][-]{chapter*.4}{\376\377\000L\000i\000s\000t\000\040\000o\000f\000\040\000T\000a\000b\000l\000e\000s}{}% 3
\BOOKMARK [0][-]{chapter*.5}{\376\377\000L\000i\000s\000t\000\040\000o\000f\000\040\000F\000i\000g\000u\000r\000e\000s}{}% 4
\BOOKMARK [0][-]{chapter*.6}{\376\377\000A\000c\000k\000n\000o\000w\000l\000e\000d\000g\000e\000m\000e\000n\000t\000s}{}% 5
\BOOKMARK [0][-]{chapter.1}{\376\377\000E\000v\000i\000d\000e\000n\000c\000e\000\040\000f\000o\000r\000\040\000D\000a\000r\000k\000\040\000M\000a\000t\000t\000e\000r}{}% 6
\BOOKMARK [1][-]{section.1.1}{\376\377\000E\000a\000r\000l\000y\000\040\000E\000v\000i\000d\000e\000n\000c\000e}{chapter.1}% 7
\BOOKMARK [1][-]{section.1.2}{\376\377\000G\000a\000l\000a\000x\000y\000\040\000C\000l\000u\000s\000t\000e\000r\000s}{chapter.1}% 8
\BOOKMARK [1][-]{section.1.3}{\376\377\000T\000h\000e\000\040\000C\000o\000s\000m\000i\000c\000\040\000M\000i\000c\000r\000o\000w\000a\000v\000e\000\040\000B\000a\000c\000k\000g\000r\000o\000u\000n\000d}{chapter.1}% 9
\BOOKMARK [1][-]{section.1.4}{\376\377\000C\000o\000m\000p\000o\000s\000i\000t\000i\000o\000n\000\040\000H\000y\000p\000o\000t\000h\000e\000s\000e\000s}{chapter.1}% 10
\BOOKMARK [2][-]{subsection.1.4.1}{\376\377\000T\000h\000e\000\040\000W\000I\000M\000P\000\040\000H\000y\000p\000o\000t\000h\000e\000s\000i\000s}{section.1.4}% 11
\BOOKMARK [0][-]{chapter.2}{\376\377\000W\000I\000M\000P\000\040\000D\000e\000t\000e\000c\000t\000i\000o\000n}{}% 12
\BOOKMARK [1][-]{section.2.1}{\376\377\000D\000i\000r\000e\000c\000t\000\040\000D\000e\000t\000e\000c\000t\000i\000o\000n}{chapter.2}% 13
\BOOKMARK [0][-]{chapter.3}{\376\377\000T\000h\000e\000\040\000C\000r\000y\000o\000g\000e\000n\000i\000c\000\040\000D\000a\000r\000k\000\040\000M\000a\000t\000t\000e\000r\000\040\000S\000e\000a\000r\000c\000h}{}% 14
\BOOKMARK [1][-]{section.3.1}{\376\377\000S\000e\000m\000i\000c\000o\000n\000d\000u\000c\000t\000o\000r\000\040\000D\000e\000t\000e\000c\000t\000o\000r\000\040\000P\000h\000y\000s\000i\000c\000s}{chapter.3}% 15
\BOOKMARK [2][-]{subsection.3.1.1}{\376\377\000E\000l\000e\000c\000t\000r\000o\000n\000\040\000R\000e\000c\000o\000i\000l\000s}{section.3.1}% 16
\BOOKMARK [2][-]{subsection.3.1.2}{\376\377\000N\000u\000c\000l\000e\000a\000r\000\040\000R\000e\000c\000o\000i\000l\000s}{section.3.1}% 17
\BOOKMARK [1][-]{section.3.2}{\376\377\000A\000m\000p\000l\000i\000f\000i\000e\000r\000s}{chapter.3}% 18
\BOOKMARK [2][-]{subsection.3.2.1}{\376\377\000M\000e\000a\000s\000u\000r\000i\000n\000g\000\040\000t\000h\000e\000\040\000e\000-\000/\000h\000+\000\040\000E\000n\000e\000r\000g\000y}{section.3.2}% 19
\BOOKMARK [2][-]{subsection.3.2.2}{\376\377\000M\000e\000a\000s\000u\000r\000i\000n\000g\000\040\000t\000h\000e\000\040\000P\000h\000o\000n\000o\000n\000\040\000E\000n\000e\000r\000g\000y}{section.3.2}% 20
\BOOKMARK [1][-]{section.3.3}{\376\377\000i\000Z\000I\000P\000\040\000I\000n\000t\000e\000r\000l\000e\000a\000v\000e\000d\000\040\000D\000e\000s\000i\000g\000n}{chapter.3}% 21
\BOOKMARK [0][-]{chapter.4}{\376\377\000D\000a\000t\000a\000\040\000A\000c\000q\000u\000i\000s\000i\000t\000i\000o\000n}{}% 22
\BOOKMARK [1][-]{section.4.1}{\376\377\000T\000h\000e\000\040\000D\000C\000R\000C\000s}{chapter.4}% 23
\BOOKMARK [1][-]{section.4.2}{\376\377\000M\000I\000D\000A\000S\000\040\000a\000n\000d\000\040\000t\000h\000e\000\040\000S\000o\000f\000t\000w\000a\000r\000e\000\040\000F\000r\000o\000n\000t\000\040\000E\000n\000d\000s}{chapter.4}% 24
\BOOKMARK [1][-]{section.4.3}{\376\377\000T\000h\000e\000\040\000D\000C\000R\000C\000\040\000D\000r\000i\000v\000e\000r}{chapter.4}% 25
\BOOKMARK [1][-]{section.4.4}{\376\377\000D\000e\000t\000e\000c\000t\000o\000r\000\040\000T\000e\000s\000t\000i\000n\000g\000\040\000T\000o\000o\000l\000s}{chapter.4}% 26
\BOOKMARK [2][-]{subsection.4.4.1}{\376\377\000T\000h\000e\000\040\000P\000u\000l\000s\000e\000\040\000D\000i\000s\000p\000l\000a\000y}{section.4.4}% 27
\BOOKMARK [1][-]{section.4.5}{\376\377\000R\000e\000a\000d\000o\000u\000t\000\040\000M\000o\000d\000e\000s}{chapter.4}% 28
\BOOKMARK [0][-]{chapter.5}{\376\377\000T\000h\000e\000\040\000H\000y\000b\000r\000i\000d\000\040\000O\000p\000t\000i\000m\000a\000l\000\040\000F\000i\000l\000t\000e\000r}{}% 29
\BOOKMARK [1][-]{section.5.1}{\376\377\000F\000o\000u\000r\000i\000e\000r\000\040\000T\000r\000a\000n\000s\000f\000o\000r\000m\000\040\000o\000f\000\040\000a\000\040\000H\000y\000b\000r\000i\000d\000\040\000T\000r\000a\000c\000e}{chapter.5}% 30
\BOOKMARK [1][-]{section.5.2}{\376\377\000P\000o\000w\000e\000r\000\040\000A\000l\000i\000a\000s\000i\000n\000g}{chapter.5}% 31
\BOOKMARK [1][-]{section.5.3}{\376\377\000F\000o\000u\000r\000i\000e\000r\000\040\000T\000r\000a\000n\000s\000f\000o\000r\000m\000\040\000w\000i\000t\000h\000o\000u\000t\000\040\000t\000h\000e\000\040\000F\000F\000T}{chapter.5}% 32
\BOOKMARK [2][-]{subsection.5.3.1}{\376\377\000F\000o\000u\000r\000i\000e\000r\000\040\000F\000r\000e\000q\000u\000e\000n\000c\000i\000e\000s\000\040\000o\000f\000\040\000a\000\040\000H\000y\000b\000r\000i\000d\000\040\000T\000r\000a\000c\000e}{section.5.3}% 33
\BOOKMARK [2][-]{subsection.5.3.2}{\376\377\000T\000i\000m\000e\000\040\000P\000o\000i\000n\000t\000s\000\040\000o\000f\000\040\000a\000\040\000H\000y\000b\000r\000i\000d\000\040\000T\000r\000a\000c\000e}{section.5.3}% 34
\BOOKMARK [2][-]{subsection.5.3.3}{\376\377\000T\000h\000e\000\040\000T\000r\000a\000n\000s\000f\000o\000r\000m\000a\000t\000i\000o\000n\000\040\000M\000a\000t\000r\000i\000x\000:\000\040\000A}{section.5.3}% 35
\BOOKMARK [1][-]{section.5.4}{\376\377\000D\000e\000t\000e\000r\000m\000i\000n\000i\000n\000g\000\040\000a\000n\000d\000\040\000I\000n\000v\000e\000r\000t\000i\000n\000g\000\040\000t\000h\000e\000\040\000C\000o\000v\000a\000r\000i\000a\000n\000c\000e\000\040\000M\000a\000t\000r\000i\000x}{chapter.5}% 36
\BOOKMARK [2][-]{subsection.5.4.1}{\376\377\000T\000h\000e\000\040\000R\000a\000t\000i\000o\000\040\000M\000/\000d}{section.5.4}% 37
\BOOKMARK [2][-]{subsection.5.4.2}{\376\377\000R\000o\000b\000u\000s\000t\000\040\000a\000n\000d\000\040\000E\000f\000f\000i\000c\000i\000e\000n\000t\000\040\000C\000o\000m\000p\000u\000t\000a\000t\000i\000o\000n\000\040\000o\000f\000\040\000t\000h\000e\000\040\000C\000o\000v\000a\000r\000i\000a\000n\000c\000e\000\040\000M\000a\000t\000r\000i\000x}{section.5.4}% 38
\BOOKMARK [2][-]{subsection.5.4.3}{\376\377\000I\000n\000v\000e\000r\000s\000i\000o\000n\000\040\000b\000y\000\040\000C\000h\000o\000l\000e\000s\000k\000i\000\040\000D\000e\000c\000o\000m\000p\000o\000s\000i\000t\000i\000o\000n}{section.5.4}% 39
\BOOKMARK [1][-]{section.5.5}{\376\377\000T\000i\000m\000e\000\040\000D\000o\000m\000a\000i\000n\000\040\000C\000o\000v\000a\000r\000i\000a\000n\000c\000e\000\040\000M\000a\000t\000r\000i\000x\000\040\000a\000n\000d\000\040\0002}{chapter.5}% 40
\BOOKMARK [1][-]{section.5.6}{\376\377\000A\000m\000p\000l\000i\000t\000u\000d\000e\000\040\000a\000n\000d\000\040\000T\000i\000m\000e\000\040\000O\000f\000f\000s\000e\000t\000\040\000E\000s\000t\000i\000m\000a\000t\000i\000o\000n\000\040\000R\000e\000s\000u\000l\000t\000s}{chapter.5}% 41
\BOOKMARK [2][-]{subsection.5.6.1}{\376\377\000P\000h\000o\000n\000o\000n\000\040\000P\000u\000l\000s\000e\000\040\000S\000i\000m\000u\000l\000a\000t\000i\000o\000n}{section.5.6}% 42
\BOOKMARK [2][-]{subsection.5.6.2}{\376\377\000P\000u\000l\000s\000e\000\040\000A\000m\000p\000l\000i\000t\000u\000d\000e\000\040\000R\000e\000s\000o\000l\000u\000t\000i\000o\000n}{section.5.6}% 43
\BOOKMARK [1][-]{section.5.7}{\376\377\000T\000i\000m\000e\000\040\000O\000f\000f\000s\000e\000t\000\040\000R\000e\000s\000o\000l\000u\000t\000i\000o\000n}{chapter.5}% 44
\BOOKMARK [1][-]{section.5.8}{\376\377\000D\000a\000t\000a\000\040\000V\000o\000l\000u\000m\000e\000\040\000C\000o\000n\000s\000e\000q\000u\000e\000n\000c\000e\000s}{chapter.5}% 45
\BOOKMARK [1][-]{section.5.9}{\376\377\000C\000o\000n\000c\000l\000u\000s\000i\000o\000n}{chapter.5}% 46
\BOOKMARK [0][-]{chapter*.7}{\376\377\000B\000i\000b\000l\000i\000o\000g\000r\000a\000p\000h\000y}{}% 47
\BOOKMARK [0][-]{appendix.A}{\376\377\000T\000h\000e\000\040\000I\000m\000a\000g\000i\000n\000a\000r\000y\000\040\000C\000o\000m\000p\000o\000n\000e\000n\000t\000\040\000o\000f\000\040\000Z\000e\000r\000o\000\040\000a\000n\000d\000\040\000N\000y\000q\000u\000i\000s\000t\000\040\000F\000r\000e\000q\000u\000e\000n\000c\000y}{}% 48
\BOOKMARK [0][-]{appendix.B}{\376\377\000D\000e\000r\000i\000v\000a\000t\000i\000o\000n\000\040\000o\000f\000\040\000A\000l\000i\000a\000s\000i\000n\000g\000\040\000F\000r\000e\000q\000u\000e\000n\000c\000i\000e\000s}{}% 49
