\relax 
\providecommand\HyperFirstAtBeginDocument{\AtBeginDocument}
\HyperFirstAtBeginDocument{\ifx\hyper@anchor\@undefined
\global\let\oldcontentsline\contentsline
\gdef\contentsline#1#2#3#4{\oldcontentsline{#1}{#2}{#3}}
\global\let\oldnewlabel\newlabel
\gdef\newlabel#1#2{\newlabelxx{#1}#2}
\gdef\newlabelxx#1#2#3#4#5#6{\oldnewlabel{#1}{{#2}{#3}}}
\AtEndDocument{\ifx\hyper@anchor\@undefined
\let\contentsline\oldcontentsline
\let\newlabel\oldnewlabel
\fi}
\fi}
\global\let\hyper@last\relax 
\gdef\HyperFirstAtBeginDocument#1{#1}
\providecommand\HyField@AuxAddToFields[1]{}
\@writefile{toc}{\contentsline {chapter}{{Abstract}}{ii}{chapter*.1}}
\@writefile{lof}{\addvspace {10\p@ }}
\@writefile{lot}{\addvspace {10\p@ }}
\@writefile{lop}{\addvspace {10\p@ }}
\@writefile{toc}{\contentsline {chapter}{{Table of Contents}}{iv}{chapter*.3}}
\@writefile{lof}{\addvspace {10\p@ }}
\@writefile{lot}{\addvspace {10\p@ }}
\@writefile{lop}{\addvspace {10\p@ }}
\citation{hertel}
\@writefile{toc}{\contentsline {chapter}{{List of Tables}}{vi}{chapter*.4}}
\@writefile{lof}{\addvspace {10\p@ }}
\@writefile{lot}{\addvspace {10\p@ }}
\@writefile{lop}{\addvspace {10\p@ }}
\citation{rubin2}
\citation{Chandra3}
\citation{markevitch}
\citation{clowe}
\citation{planck}
\citation{moore}
\@writefile{toc}{\contentsline {chapter}{{List of Figures}}{viii}{chapter*.5}}
\@writefile{lof}{\addvspace {10\p@ }}
\@writefile{lot}{\addvspace {10\p@ }}
\@writefile{lop}{\addvspace {10\p@ }}
\citation{CDMS_plots}
\citation{CDMS_plots}
\citation{blas}
\citation{hertel}
\citation{Jeff_thesis}
\citation{iZIP}
\citation{iZIP}
\@writefile{toc}{\contentsline {chapter}{{Acknowledgements}}{xi}{chapter*.6}}
\@writefile{lof}{\addvspace {10\p@ }}
\@writefile{lot}{\addvspace {10\p@ }}
\@writefile{lop}{\addvspace {10\p@ }}
\citation{Oort}
\citation{Zwicky}
\citation{rubin2}
\citation{rubin2}
\citation{rubin2}
\citation{Sofue}
\@writefile{toc}{\contentsline {chapter}{\numberline {1}{Evidence for Dark Matter}}{1}{chapter.1}}
\@writefile{lof}{\addvspace {10\p@ }}
\@writefile{lot}{\addvspace {10\p@ }}
\@writefile{lop}{\addvspace {10\p@ }}
\@writefile{toc}{\contentsline {section}{\numberline {1.1}{Early Evidence}}{1}{section.1.1}}
\newlabel{sec:evidence}{{1.1}{1}{\@fmttocentry {Early Evidence}\relax }{section.1.1}{}}
\citation{Chandra1}
\citation{Chandra1}
\citation{Chandra2}
\@writefile{lof}{\contentsline {figure}{\numberline {1.1}{\ignorespaces Rotational curves, similar to those published by Rubin, overlaid on an image of the Andromeda galaxy (M31) taken by the Palomar Sky Survey. The roughly constant velocity at high radius indicates that the high-luminosity galactic center makes up a small fraction of the total mass. Figure from \cite  {rubin2}. }}{2}{figure.1.1}}
\newlabel{fig:rotational_curves}{{1.1}{2}{Rotational curves, similar to those published by Rubin, overlaid on an image of the Andromeda galaxy (M31) taken by the Palomar Sky Survey. The roughly constant velocity at high radius indicates that the high-luminosity galactic center makes up a small fraction of the total mass. Figure from \cite {rubin2}}{figure.1.1}{}}
\@writefile{toc}{\contentsline {section}{\numberline {1.2}{Galaxy Clusters}}{2}{section.1.2}}
\newlabel{sec:galaxy_clusters}{{1.2}{2}{\@fmttocentry {Galaxy Clusters}\relax }{section.1.2}{}}
\citation{HST1}
\citation{Chandra3}
\citation{markevitch}
\citation{clowe}
\citation{Chandra3}
\citation{markevitch}
\citation{clowe}
\@writefile{lof}{\contentsline {figure}{\numberline {1.2}{\ignorespaces (Left) Abell 1689 (\textcircled {c} 2008 X-ray: NASA/CXC/MIT/E.-H Peng et al; Optical: NASA/STScI, by permission) \cite  {Chandra3}. (Right) 1E 0657-56 (\textcircled {c} 2004 X-ray: NASA/CXC/CfA/M.Markevitch et al.; Optical: NASA/STScI; Magellan/U.Arizona/D.Clowe et al.; Lensing Map: NASA/STScI; ESO WFI; Magellan/U.Arizona/D.Clowe et al., by permission) \cite  {markevitch} \cite  {clowe} .}}{3}{figure.1.2}}
\newlabel{fig:abel1}{{1.2}{3}{(Left) Abell 1689 (\textcircled {c} 2008 X-ray: NASA/CXC/MIT/E.-H Peng et al; Optical: NASA/STScI, by permission) \cite {Chandra3}. (Right) 1E 0657-56 (\textcircled {c} 2004 X-ray: NASA/CXC/CfA/M.Markevitch et al.; Optical: NASA/STScI; Magellan/U.Arizona/D.Clowe et al.; Lensing Map: NASA/STScI; ESO WFI; Magellan/U.Arizona/D.Clowe et al., by permission) \cite {markevitch} \cite {clowe} }{figure.1.2}{}}
\citation{planck}
\citation{planck}
\citation{dodelson}
\@writefile{toc}{\contentsline {section}{\numberline {1.3}{The Cosmic Microwave Background}}{4}{section.1.3}}
\newlabel{sec:cmb}{{1.3}{4}{\@fmttocentry {The Cosmic Microwave Background}\relax }{section.1.3}{}}
\citation{planck}
\citation{Macho2}
\@writefile{lof}{\contentsline {figure}{\numberline {1.3}{\ignorespaces CMB power spectrum predicted by a $\Lambda $-CDM cosmology (i.e. a dark energy (69\%) and cold dark matter (26\%) dominated universe). Data points in red are measurements by the Planck collaboration \cite  {planck}. Power spectrum of temperature fluctuations in the Cosmic Microwave Background (\textcircled {c} 2013 ESA/Planck, and the Planck collaboration, from Planck 2013 results. I. Overview of products and results, by permission). }}{5}{figure.1.3}}
\newlabel{fig:anis}{{1.3}{5}{CMB power spectrum predicted by a $\Lambda $-CDM cosmology (i.e. a dark energy (69\%) and cold dark matter (26\%) dominated universe). Data points in red are measurements by the Planck collaboration \cite {planck}. Power spectrum of temperature fluctuations in the Cosmic Microwave Background (\textcircled {c} 2013 ESA/Planck, and the Planck collaboration, from Planck 2013 results. I. Overview of products and results, by permission)}{figure.1.3}{}}
\@writefile{toc}{\contentsline {section}{\numberline {1.4}{Composition Hypotheses}}{5}{section.1.4}}
\newlabel{comp_hyp}{{1.4}{5}{\@fmttocentry {Composition Hypotheses}\relax }{section.1.4}{}}
\citation{neutrino}
\citation{wein}
\citation{ADMX}
\@writefile{toc}{\contentsline {subsection}{\numberline {1.4.1}{The WIMP Hypothesis}}{6}{subsection.1.4.1}}
\citation{Griest}
\citation{Kamionkowski}
\@writefile{lof}{\contentsline {figure}{\numberline {1.4}{\ignorespaces Number density of WIMPs in the Universe as a function of time, where the relic density depends on the WIMP annihilation cross section, $\sigma _{\chi \mathaccentV {bar}016{\chi }}$ or $\sigma _{A}$ in the figure. Evolution of a typical WIMP number density in the early universe (\textcircled {c} NASA/IPAC Extragalactic Database (NED) which is operated by the Jet Propulsion Laboratory, California Institute of Technology, under contract with the National Aeronautics and Space Administration, by permission). }}{7}{figure.1.4}}
\newlabel{fig:abundance}{{1.4}{7}{Number density of WIMPs in the Universe as a function of time, where the relic density depends on the WIMP annihilation cross section, $\sigma _{\chi \bar {\chi }}$ or $\sigma _{A}$ in the figure. Evolution of a typical WIMP number density in the early universe (\textcircled {c} NASA/IPAC Extragalactic Database (NED) which is operated by the Jet Propulsion Laboratory, California Institute of Technology, under contract with the National Aeronautics and Space Administration, by permission)}{figure.1.4}{}}
\citation{Kamionkowski}
\citation{Kamionkowski}
\citation{LHC}
\citation{LAT}
\citation{lisanti}
\@writefile{toc}{\contentsline {chapter}{\numberline {2}{WIMP Detection}}{9}{chapter.2}}
\@writefile{lof}{\addvspace {10\p@ }}
\@writefile{lot}{\addvspace {10\p@ }}
\@writefile{lop}{\addvspace {10\p@ }}
\@writefile{toc}{\contentsline {section}{\numberline {2.1}{Direct Detection}}{9}{section.2.1}}
\newlabel{detwimps}{{2.1}{9}{\@fmttocentry {Direct Detection}\relax }{section.2.1}{}}
\newlabel{collision}{{2.1}{9}{\@fmttocentry {Direct Detection}\relax }{equation.2.1.1}{}}
\citation{DAMA}
\citation{witten}
\newlabel{max}{{2.2}{10}{\@fmttocentry {Direct Detection}\relax }{equation.2.1.2}{}}
\newlabel{diff}{{2.3}{10}{\@fmttocentry {Direct Detection}\relax }{equation.2.1.3}{}}
\citation{moore}
\citation{moore}
\@writefile{lof}{\contentsline {figure}{\numberline {2.1}{\ignorespaces The expected WIMP event rate for the given $m_\chi $ and $\sigma _{SI}=\sigma _{\chi T}$. $\sigma _{SI}$=10$^{-41}$cm$^2$ corresponds to roughly the cross section reported by DAMA/LIBRA, CRESST, CDMS Si, and CoGent. $\sigma _{SI}$=10$^{-45}$cm$^2$ corresponds to a cross section just below published sensitivities from 2013. Internal CDMS figure, from \cite  {moore}.}}{11}{figure.2.1}}
\newlabel{rate}{{2.1}{11}{The expected WIMP event rate for the given $m_\chi $ and $\sigma _{SI}=\sigma _{\chi T}$. $\sigma _{SI}$=10$^{-41}$cm$^2$ corresponds to roughly the cross section reported by DAMA/LIBRA, CRESST, CDMS Si, and CoGent. $\sigma _{SI}$=10$^{-45}$cm$^2$ corresponds to a cross section just below published sensitivities from 2013. Internal CDMS figure, from \cite {moore}}{figure.2.1}{}}
\citation{CDMS_plots}
\citation{CDMS_plots}
\@writefile{lof}{\contentsline {figure}{\numberline {2.2}{\ignorespaces Current and projected limits on the WIMP mass-cross section parameter space. Figure from SuperCDMS collaboration standard public plots \cite  {CDMS_plots}.}}{12}{figure.2.2}}
\newlabel{limits}{{2.2}{12}{Current and projected limits on the WIMP mass-cross section parameter space. Figure from SuperCDMS collaboration standard public plots \cite {CDMS_plots}}{figure.2.2}{}}
\citation{hertel}
\citation{hertel}
\citation{knoll}
\citation{CDMS_plots}
\citation{CDMS_plots}
\@writefile{toc}{\contentsline {chapter}{\numberline {3}{The Cryogenic Dark Matter Search}}{13}{chapter.3}}
\@writefile{lof}{\addvspace {10\p@ }}
\@writefile{lot}{\addvspace {10\p@ }}
\@writefile{lop}{\addvspace {10\p@ }}
\@writefile{toc}{\contentsline {section}{\numberline {3.1}{Semiconductor Detector Physics}}{13}{section.3.1}}
\@writefile{lof}{\contentsline {figure}{\numberline {3.1}{\ignorespaces A SuperCDMS SNOLAB iZIP 6 detector. Figure from SuperCDMS collaboration standard public plots \cite  {CDMS_plots}. }}{13}{figure.3.1}}
\newlabel{fig:detector}{{3.1}{13}{A SuperCDMS SNOLAB iZIP 6 detector. Figure from SuperCDMS collaboration standard public plots \cite {CDMS_plots}}{figure.3.1}{}}
\citation{lindhard}
\citation{Jeff_thesis}
\@writefile{lot}{\contentsline {table}{\numberline {3.1}{\ignorespaces Detector specs for different generations of the Germanium CDMS detectors. Adapted from \cite  {hertel} and SuperCDMS SNOLAB detector performance projections, by permission. }}{14}{table.3.1}}
\newlabel{specs1}{{3.1}{14}{Detector specs for different generations of the Germanium CDMS detectors. Adapted from \cite {hertel} and SuperCDMS SNOLAB detector performance projections, by permission}{table.3.1}{}}
\@writefile{toc}{\contentsline {subsection}{\numberline {3.1.1}{Electron Recoils}}{14}{subsection.3.1.1}}
\newlabel{part_int}{{3.1.1}{14}{\@fmttocentry {Electron Recoils}\relax }{subsection.3.1.1}{}}
\citation{blas}
\citation{blas}
\citation{hertel}
\@writefile{lof}{\contentsline {figure}{\numberline {3.2}{\ignorespaces Electron stopping power in Silicon. Internal CDMS figure, used with permission, from \cite  {blas}. }}{15}{figure.3.2}}
\newlabel{fig:e_stop}{{3.2}{15}{Electron stopping power in Silicon. Internal CDMS figure, used with permission, from \cite {blas}}{figure.3.2}{}}
\citation{hertel}
\citation{lindhard}
\citation{lindhard}
\citation{hertel}
\citation{hertel}
\citation{lindhard}
\citation{lindhard}
\@writefile{toc}{\contentsline {subsection}{\numberline {3.1.2}{Nuclear Recoils}}{16}{subsection.3.1.2}}
\@writefile{lof}{\contentsline {figure}{\numberline {3.3}{\ignorespaces The ionization yield of different energy nuclear and electron recoil events. Ionization yield is defined as the fraction of recoil energy that goes into the $e^-/h+$ pairs with the electron recoil ionization yield normalized to one (as seen by the horizontal lines). Internal CDMS figure, used with permission, from \cite  {hertel}. }}{16}{figure.3.3}}
\newlabel{i_yield}{{3.3}{16}{The ionization yield of different energy nuclear and electron recoil events. Ionization yield is defined as the fraction of recoil energy that goes into the $e^-/h+$ pairs with the electron recoil ionization yield normalized to one (as seen by the horizontal lines). Internal CDMS figure, used with permission, from \cite {hertel}}{figure.3.3}{}}
\citation{Jeff_thesis}
\citation{irwin}
\@writefile{toc}{\contentsline {section}{\numberline {3.2}{Amplifiers}}{17}{section.3.2}}
\@writefile{toc}{\contentsline {subsection}{\numberline {3.2.1}{Measuring the $e^-/h^+$ Energy}}{17}{subsection.3.2.1}}
\citation{geant_phonons}
\citation{Jeff_thesis}
\citation{Jeff_thesis}
\citation{iZIP}
\citation{Jeff_thesis}
\citation{iZIP}
\citation{iZIP}
\citation{iZIP}
\@writefile{toc}{\contentsline {subsection}{\numberline {3.2.2}{Measuring the Phonon Energy}}{18}{subsection.3.2.2}}
\@writefile{toc}{\contentsline {section}{\numberline {3.3}{iZIP Interleaved Design}}{18}{section.3.3}}
\citation{iZIP}
\citation{iZIP}
\citation{iZIP}
\@writefile{lof}{\contentsline {figure}{\numberline {3.4}{\ignorespaces (Left) A schematic of the CDMS II detector. The four phonon channels are colored on the top surface and the charge electrodes (Qi and Q0) are pictured on the lower surface. Figure from \cite  {Jeff_thesis}. (Right) The iZIP design with interleaved charge electrodes ($\pm 2V$) and phonon rails (0V). Internal CDMS figure, used with permission, from \cite  {iZIP}. }}{19}{figure.3.4}}
\newlabel{cdmsII_det}{{3.4}{19}{(Left) A schematic of the CDMS II detector. The four phonon channels are colored on the top surface and the charge electrodes (Qi and Q0) are pictured on the lower surface. Figure from \cite {Jeff_thesis}. (Right) The iZIP design with interleaved charge electrodes ($\pm 2V$) and phonon rails (0V). Internal CDMS figure, used with permission, from \cite {iZIP}}{figure.3.4}{}}
\@writefile{lof}{\contentsline {figure}{\numberline {3.5}{\ignorespaces (Left) The electric field and potential lines produced from the phonon rails (yellow) and charge electrodes (green). Notice that the unique surface E-field extends $\sim $1mm into the crystal and therefore surface events within this margin should exhibit asymmetric charge collection. (Right) Data from T3Z1 showing surface event discrimination (discussion in main text). Internal CDMS figure, used with permission, from \cite  {iZIP}. }}{20}{figure.3.5}}
\newlabel{iZIPs}{{3.5}{20}{(Left) The electric field and potential lines produced from the phonon rails (yellow) and charge electrodes (green). Notice that the unique surface E-field extends $\sim $1mm into the crystal and therefore surface events within this margin should exhibit asymmetric charge collection. (Right) Data from T3Z1 showing surface event discrimination (discussion in main text). Internal CDMS figure, used with permission, from \cite {iZIP}}{figure.3.5}{}}
\@writefile{toc}{\contentsline {chapter}{\numberline {4}{Data Acquisition}}{21}{chapter.4}}
\@writefile{lof}{\addvspace {10\p@ }}
\@writefile{lot}{\addvspace {10\p@ }}
\@writefile{lop}{\addvspace {10\p@ }}
\@writefile{toc}{\contentsline {section}{\numberline {4.1}{The DCRCs}}{21}{section.4.1}}
\newlabel{dcrc}{{4.1}{21}{\@fmttocentry {The DCRCs}\relax }{section.4.1}{}}
\@writefile{lof}{\contentsline {figure}{\numberline {4.1}{\ignorespaces Cartoon showing the proposed phonon waveform readout and the ability to monitor low frequency noise. Hybrid waveform readout is discussed in chapter \ref  {HOF1}. }}{22}{figure.4.1}}
\newlabel{hybrid_cartoon}{{4.1}{22}{Cartoon showing the proposed phonon waveform readout and the ability to monitor low frequency noise. Hybrid waveform readout is discussed in chapter \ref {HOF1}}{figure.4.1}{}}
\@writefile{lof}{\contentsline {figure}{\numberline {4.2}{\ignorespaces A Rev C DCRC. The 50-pin connector interfaces with the bias and sensor lines to the detector. The board receives power over the ethernet and also communicates with the DAQ through the ethernet port. }}{22}{figure.4.2}}
\newlabel{dcrc}{{4.2}{22}{A Rev C DCRC. The 50-pin connector interfaces with the bias and sensor lines to the detector. The board receives power over the ethernet and also communicates with the DAQ through the ethernet port}{figure.4.2}{}}
\citation{midas_ref}
\@writefile{toc}{\contentsline {section}{\numberline {4.2}{MIDAS and the Software Front Ends}}{23}{section.4.2}}
\newlabel{midas}{{4.2}{23}{\@fmttocentry {MIDAS and the Software Front Ends}\relax }{section.4.2}{}}
\@writefile{lof}{\contentsline {figure}{\numberline {4.3}{\ignorespaces A cartoon roughly depicting the communication between the trigger front end, tower front end, the DCRC's trigger buffer, and the DCRC's circular buffer. The hypothetical data stream shows triggers labeled with yellow arrows. The time stamps of the triggers are continuously recorded in the trigger buffer and periodically read out by the trigger front end. The triggers with yellow arrows too close together would be rejected as piled-up while the other triggers would be read by the tower front end from the circular buffer. }}{24}{figure.4.3}}
\newlabel{cartoon_frontend}{{4.3}{24}{A cartoon roughly depicting the communication between the trigger front end, tower front end, the DCRC's trigger buffer, and the DCRC's circular buffer. The hypothetical data stream shows triggers labeled with yellow arrows. The time stamps of the triggers are continuously recorded in the trigger buffer and periodically read out by the trigger front end. The triggers with yellow arrows too close together would be rejected as piled-up while the other triggers would be read by the tower front end from the circular buffer}{figure.4.3}{}}
\@writefile{toc}{\contentsline {section}{\numberline {4.3}{The DCRC Driver}}{24}{section.4.3}}
\citation{midas_ref}
\citation{midas_ref}
\@writefile{toc}{\contentsline {section}{\numberline {4.4}{Detector Testing Tools}}{26}{section.4.4}}
\@writefile{lof}{\contentsline {figure}{\numberline {4.4}{\ignorespaces (Left) Two iZIP phonon pulses that are piled-up. (Right) The rate of usable (non piled-up) events vs. the raw event rate. For this plot a 52ms long trace has been assumed, where an optimal raw rate is $\sim 20$Hz giving a $\sim $7Hz usable rate. }}{26}{figure.4.4}}
\newlabel{pileup}{{4.4}{26}{(Left) Two iZIP phonon pulses that are piled-up. (Right) The rate of usable (non piled-up) events vs. the raw event rate. For this plot a 52ms long trace has been assumed, where an optimal raw rate is $\sim 20$Hz giving a $\sim $7Hz usable rate}{figure.4.4}{}}
\citation{root}
\@writefile{lof}{\contentsline {figure}{\numberline {4.5}{\ignorespaces A screen shot of one of the existing detector control GUIs, written primarily by A. Roberts. Internal CDMS figure, used with permission. }}{27}{figure.4.5}}
\newlabel{Amy_GUI}{{4.5}{27}{A screen shot of one of the existing detector control GUIs, written primarily by A. Roberts. Internal CDMS figure, used with permission}{figure.4.5}{}}
\@writefile{toc}{\contentsline {subsection}{\numberline {4.4.1}{The Pulse Display}}{27}{subsection.4.4.1}}
\citation{midas_ref}
\@writefile{lof}{\contentsline {figure}{\numberline {4.6}{\ignorespaces A screen shot of the Pulse Display displaying the PSD of two charge channels in real time. Behind the scenes, the time domain traces are grabbed from the SYSTEM buffer which are then Fourier transformed, and displayed on the screen. }}{30}{figure.4.6}}
\newlabel{pulse_display}{{4.6}{30}{A screen shot of the Pulse Display displaying the PSD of two charge channels in real time. Behind the scenes, the time domain traces are grabbed from the SYSTEM buffer which are then Fourier transformed, and displayed on the screen}{figure.4.6}{}}
\@writefile{toc}{\contentsline {section}{\numberline {4.5}{Readout Modes}}{30}{section.4.5}}
\citation{Jeff_thesis}
\@writefile{toc}{\contentsline {chapter}{\numberline {5}{The Hybrid Optimal Filter}}{32}{chapter.5}}
\@writefile{lof}{\addvspace {10\p@ }}
\@writefile{lot}{\addvspace {10\p@ }}
\@writefile{lop}{\addvspace {10\p@ }}
\newlabel{HOF1}{{5}{32}{The Hybrid Optimal Filter\relax }{chapter.5}{}}
\newlabel{eq:chi2_diag1}{{5.1}{32}{The Hybrid Optimal Filter\relax }{equation.5.0.1}{}}
\newlabel{sampleScheme}{{5}{33}{The Hybrid Optimal Filter\relax }{chapter.5}{}}
\@writefile{lof}{\contentsline {figure}{\numberline {5.1}{\ignorespaces Sampling scheme for phonon and charge traces. Roughly to scale.}}{33}{figure.5.1}}
\newlabel{eq:chi2_nodiag}{{5.2}{33}{The Hybrid Optimal Filter\relax }{equation.5.0.2}{}}
\@writefile{lot}{\contentsline {table}{\numberline {5.1}{\ignorespaces Important time and frequency values for hybrid phonon waveforms. }}{34}{table.5.1}}
\newlabel{tab:imp_values}{{5.1}{34}{Important time and frequency values for hybrid phonon waveforms}{table.5.1}{}}
\@writefile{toc}{\contentsline {section}{\numberline {5.1}{Fourier Transform of a Hybrid Trace}}{34}{section.5.1}}
\newlabel{Fourier}{{5.1}{34}{\@fmttocentry {Fourier Transform of a Hybrid Trace}\relax }{section.5.1}{}}
\@writefile{lot}{\contentsline {table}{\numberline {5.2}{\ignorespaces Important time and frequency values for hybrid charge waveforms.}}{35}{table.5.2}}
\newlabel{tab:imp_values_true}{{5.2}{35}{Important time and frequency values for hybrid charge waveforms}{table.5.2}{}}
\@writefile{lof}{\contentsline {figure}{\numberline {5.2}{\ignorespaces Fourier coefficient spacing for phonon waveforms. }}{35}{figure.5.2}}
\newlabel{freqSampleScheme}{{5.2}{35}{Fourier coefficient spacing for phonon waveforms}{figure.5.2}{}}
\@writefile{toc}{\contentsline {section}{\numberline {5.2}{Power Aliasing}}{35}{section.5.2}}
\newlabel{fft_paste}{{5.2}{35}{\@fmttocentry {Power Aliasing}\relax }{section.5.2}{}}
\citation{Dutt_Rokhlin}
\citation{Greengard_Lee}
\citation{scargle}
\@writefile{lof}{\contentsline {figure}{\numberline {5.3}{\ignorespaces A PSD, using the the pasting method, of a hybrid phonon trace with certain injected frequencies. There are aliased peaks at $f$=14.062kHz and $f$ = 17.186kHz (discussed in main text). The red line marks the folding point, $f_{Nyq,slow}$ at 19531Hz. }}{36}{figure.5.3}}
\newlabel{paste_check}{{5.3}{36}{A PSD, using the the pasting method, of a hybrid phonon trace with certain injected frequencies. There are aliased peaks at $f$=14.062kHz and $f$ = 17.186kHz (discussed in main text). The red line marks the folding point, $f_{Nyq,slow}$ at 19531Hz}{figure.5.3}{}}
\@writefile{toc}{\contentsline {section}{\numberline {5.3}{Fourier Transform without the FFT}}{36}{section.5.3}}
\newlabel{ls_four}{{5.3}{36}{\@fmttocentry {Fourier Transform without the FFT}\relax }{section.5.3}{}}
\newlabel{dft_1}{{5.3}{37}{\@fmttocentry {Fourier Transform without the FFT}\relax }{equation.5.3.3}{}}
\newlabel{idft}{{5.4}{37}{\@fmttocentry {Fourier Transform without the FFT}\relax }{equation.5.3.4}{}}
\newlabel{sym_0}{{5.5}{37}{\@fmttocentry {Fourier Transform without the FFT}\relax }{equation.5.3.5}{}}
\@writefile{toc}{\contentsline {subsection}{\numberline {5.3.1}{Fourier Frequencies of a Hybrid Trace}}{38}{subsection.5.3.1}}
\newlabel{hybrid_nat_freq}{{5.3.1}{38}{\@fmttocentry {Fourier Frequencies of a Hybrid Trace}\relax }{subsection.5.3.1}{}}
\newlabel{imp_values}{{5.3.1}{38}{\@fmttocentry {Fourier Frequencies of a Hybrid Trace}\relax }{subsection.5.3.1}{}}
\newlabel{imp_values}{{5.3.1}{38}{\@fmttocentry {Fourier Frequencies of a Hybrid Trace}\relax }{subsection.5.3.1}{}}
\newlabel{imp_values}{{5.3.1}{38}{\@fmttocentry {Fourier Frequencies of a Hybrid Trace}\relax }{subsection.5.3.1}{}}
\@writefile{toc}{\contentsline {subsection}{\numberline {5.3.2}{Time Points of a Hybrid Trace}}{39}{subsection.5.3.2}}
\newlabel{time_points}{{5.3.2}{39}{\@fmttocentry {Time Points of a Hybrid Trace}\relax }{subsection.5.3.2}{}}
\newlabel{t_kays}{{5.6}{39}{\@fmttocentry {Time Points of a Hybrid Trace}\relax }{equation.5.3.6}{}}
\newlabel{gk_average}{{5.7}{39}{\@fmttocentry {Time Points of a Hybrid Trace}\relax }{equation.5.3.7}{}}
\@writefile{toc}{\contentsline {subsection}{\numberline {5.3.3}{The Transformation Matrix: \textbf  {A}}}{39}{subsection.5.3.3}}
\newlabel{matrix_A}{{5.3.3}{39}{\@fmttocentry {The Transformation Matrix: \textbf {A}}\relax }{subsection.5.3.3}{}}
\newlabel{alpha_values}{{5.3.3}{40}{\@fmttocentry {The Transformation Matrix: \textbf {A}}\relax }{subsection.5.3.3}{}}
\@writefile{toc}{\contentsline {section}{\numberline {5.4}{Determining and Inverting the Covariance Matrix}}{40}{section.5.4}}
\newlabel{cov_m}{{5.4}{40}{\@fmttocentry {Determining and Inverting the Covariance Matrix}\relax }{section.5.4}{}}
\newlabel{eq:cov_matrix}{{5.8}{40}{\@fmttocentry {Determining and Inverting the Covariance Matrix}\relax }{equation.5.4.8}{}}
\@writefile{lot}{\contentsline {table}{\numberline {5.3}{\ignorespaces The baseline resolution of the HOF improves as $M/d$ increases up to $\sim $7. We simulated 1/$f$ + white noise and 1000 phonon pulses (discussed further in sec. \ref  {phonon_sim}). The HOF approaches the limit of its best possible resolution, which is the resolution of the 1D uniform OF applied to the full 625kHz, 32768 point, trace. We also show the resolution by determining the covariance matrix as described in sec. \ref  {robust_cov}, which shows good performance. }}{41}{table.5.3}}
\newlabel{m/d_variance}{{5.3}{41}{The baseline resolution of the HOF improves as $M/d$ increases up to $\sim $7. We simulated 1/$f$ + white noise and 1000 phonon pulses (discussed further in sec. \ref {phonon_sim}). The HOF approaches the limit of its best possible resolution, which is the resolution of the 1D uniform OF applied to the full 625kHz, 32768 point, trace. We also show the resolution by determining the covariance matrix as described in sec. \ref {robust_cov}, which shows good performance}{table.5.3}{}}
\newlabel{inequality7}{{5.9}{41}{\@fmttocentry {Determining and Inverting the Covariance Matrix}\relax }{equation.5.4.9}{}}
\@writefile{toc}{\contentsline {subsection}{\numberline {5.4.1}{The Ratio $M/d$}}{42}{subsection.5.4.1}}
\newlabel{noverd}{{5.4.1}{42}{\@fmttocentry {The Ratio $M/d$}\relax }{subsection.5.4.1}{}}
\citation{rito}
\@writefile{toc}{\contentsline {subsection}{\numberline {5.4.2}{Robust and Efficient Computation of the Covariance Matrix}}{43}{subsection.5.4.2}}
\newlabel{robust_cov}{{5.4.2}{43}{\@fmttocentry {Robust and Efficient Computation of the Covariance Matrix}\relax }{subsection.5.4.2}{}}
\citation{nr}
\newlabel{lin_trans}{{5.11}{44}{\@fmttocentry {Robust and Efficient Computation of the Covariance Matrix}\relax }{equation.5.4.11}{}}
\newlabel{err_prop}{{5.12}{44}{\@fmttocentry {Robust and Efficient Computation of the Covariance Matrix}\relax }{equation.5.4.12}{}}
\@writefile{lof}{\contentsline {figure}{\numberline {5.4}{\ignorespaces There are 16 frequency components in the orthogonal basis that contribute to the cosine coefficient at $\sim 9538 \text  {Hz}$ in the non-orthogonal basis. These frequencies match the predicted alias frequencies derived in Appendix \ref  {alias_deriv}. }}{45}{figure.5.4}}
\newlabel{fig:aliasing_clear}{{5.4}{45}{There are 16 frequency components in the orthogonal basis that contribute to the cosine coefficient at $\sim 9538 \text {Hz}$ in the non-orthogonal basis. These frequencies match the predicted alias frequencies derived in Appendix \ref {alias_deriv}}{figure.5.4}{}}
\@writefile{toc}{\contentsline {subsection}{\numberline {5.4.3}{Inversion by Choleski Decomposition}}{45}{subsection.5.4.3}}
\newlabel{chol}{{5.4.3}{45}{\@fmttocentry {Inversion by Choleski Decomposition}\relax }{subsection.5.4.3}{}}
\@writefile{toc}{\contentsline {section}{\numberline {5.5}{Time Domain Covariance Matrix and $\chi ^2$}}{45}{section.5.5}}
\newlabel{time_dom_chi2}{{5.5}{45}{\@fmttocentry {Time Domain Covariance Matrix and $\chi ^2$}\relax }{section.5.5}{}}
\newlabel{eq:chi2_time_nodiag}{{5.13}{46}{\@fmttocentry {Time Domain Covariance Matrix and $\chi ^2$}\relax }{equation.5.5.13}{}}
\newlabel{eq: pulse_amp}{{5.14}{46}{\@fmttocentry {Time Domain Covariance Matrix and $\chi ^2$}\relax }{equation.5.5.14}{}}
\@writefile{toc}{\contentsline {section}{\numberline {5.6}{Amplitude and Time Offset Estimation Results}}{46}{section.5.6}}
\newlabel{results}{{5.6}{46}{\@fmttocentry {Amplitude and Time Offset Estimation Results}\relax }{section.5.6}{}}
\@writefile{toc}{\contentsline {subsection}{\numberline {5.6.1}{Phonon Pulse Simulation}}{47}{subsection.5.6.1}}
\newlabel{phonon_sim}{{5.6.1}{47}{\@fmttocentry {Phonon Pulse Simulation}\relax }{subsection.5.6.1}{}}
\newlabel{double_exp}{{5.15}{47}{\@fmttocentry {Phonon Pulse Simulation}\relax }{equation.5.6.15}{}}
\@writefile{lof}{\contentsline {figure}{\numberline {5.5}{\ignorespaces A phonon template, with $A_f = 0.9, T_f = 2771\mu s, R_f = 25\mu s, F_f=175\mu s, A_s = 0.4, T_s = 2771\mu s,R_s=100\mu s,F_s=816\mu s$. The inset shows the 1024 points of fast sampled data. }}{47}{figure.5.5}}
\newlabel{template1}{{5.5}{47}{A phonon template, with $A_f = 0.9, T_f = 2771\mu s, R_f = 25\mu s, F_f=175\mu s, A_s = 0.4, T_s = 2771\mu s,R_s=100\mu s,F_s=816\mu s$. The inset shows the 1024 points of fast sampled data}{figure.5.5}{}}
\@writefile{toc}{\contentsline {subsection}{\numberline {5.6.2}{Pulse Amplitude Resolution}}{48}{subsection.5.6.2}}
\newlabel{resolution_exp}{{5.16}{48}{\@fmttocentry {Pulse Amplitude Resolution}\relax }{equation.5.6.16}{}}
\newlabel{resolution_cont}{{5.17}{48}{\@fmttocentry {Pulse Amplitude Resolution}\relax }{equation.5.6.17}{}}
\@writefile{lot}{\contentsline {table}{\numberline {5.4}{\ignorespaces Baseline and expected resolution of different length 1D OFs and the HOF. The HOF performs as well as the 32768 point 1D OF. The uncertainty on the resolutions is $\sigma _{\sigma ^2} = \sigma ^2\sqrt  {\frac  {2}{N-1}}$, so $\sigma _{\sigma ^2} = \sigma ^2 \times $ 0.014 for $N$=10000, plus a small additional factor from the covariance matrix estimation. 1/$f$+wt.+$\delta $ has large noise peaks injected at 100, 1300, and 2200Hz. 1/$f$+wt.+$\sim $ has the normal white and 1/$f$ features on top of which we add a sinusoidal in $J$, the PSD, up to 40kHz .}}{49}{table.5.4}}
\newlabel{specs}{{5.4}{49}{Baseline and expected resolution of different length 1D OFs and the HOF. The HOF performs as well as the 32768 point 1D OF. The uncertainty on the resolutions is $\sigma _{\sigma ^2} = \sigma ^2\sqrt {\frac {2}{N-1}}$, so $\sigma _{\sigma ^2} = \sigma ^2 \times $ 0.014 for $N$=10000, plus a small additional factor from the covariance matrix estimation. 1/$f$+wt.+$\delta $ has large noise peaks injected at 100, 1300, and 2200Hz. 1/$f$+wt.+$\sim $ has the normal white and 1/$f$ features on top of which we add a sinusoidal in $J$, the PSD, up to 40kHz }{table.5.4}{}}
\citation{triggertaskforce}
\@writefile{toc}{\contentsline {section}{\numberline {5.7}{Time Offset Resolution}}{50}{section.5.7}}
\newlabel{resolution_exp_time}{{5.18}{50}{\@fmttocentry {Time Offset Resolution}\relax }{equation.5.7.18}{}}
\@writefile{toc}{\contentsline {section}{\numberline {5.8}{Data Volume Consequences}}{50}{section.5.8}}
\newlabel{data_through}{{5.8}{50}{\@fmttocentry {Data Volume Consequences}\relax }{section.5.8}{}}
\@writefile{lot}{\contentsline {table}{\numberline {5.5}{\ignorespaces Time offset resolution results and the time offset's effect on the pulse amplitude estimation. The time offset estimation with 1024 points is nearly as good as with 32768 points. }}{51}{table.5.5}}
\newlabel{table_t0}{{5.5}{51}{Time offset resolution results and the time offset's effect on the pulse amplitude estimation. The time offset estimation with 1024 points is nearly as good as with 32768 points}{table.5.5}{}}
\@writefile{lot}{\contentsline {table}{\numberline {5.6}{\ignorespaces Projected data throughput values for 42 iZIPs. A 5Hz trigger rate per detector is assumed for the Ba calibration. The live fraction is the assumed fraction of operation time spent in the specified mode. The 200TB/year and 897 TB/year values assume recomputation of the covariance matrix every 3 hours (potentially na{\"i}ve). }}{52}{table.5.6}}
\newlabel{tab:data_volume}{{5.6}{52}{Projected data throughput values for 42 iZIPs. A 5Hz trigger rate per detector is assumed for the Ba calibration. The live fraction is the assumed fraction of operation time spent in the specified mode. The 200TB/year and 897 TB/year values assume recomputation of the covariance matrix every 3 hours (potentially na{\"i}ve)}{table.5.6}{}}
\@writefile{toc}{\contentsline {section}{\numberline {5.9}{Conclusion}}{52}{section.5.9}}
\bibstyle{model1-num-names}
\bibdata{<your-bib-database>}
\bibcite{Oort}{1}
\bibcite{Zwicky}{2}
\bibcite{rubin2}{3}
\bibcite{Sofue}{4}
\bibcite{HST1}{5}
\bibcite{Chandra1}{6}
\bibcite{Chandra2}{7}
\bibcite{Chandra3}{8}
\bibcite{markevitch}{9}
\bibcite{clowe}{10}
\bibcite{Macho2}{11}
\bibcite{planck}{12}
\bibcite{planck2}{13}
\bibcite{dodelson}{14}
\@writefile{toc}{\contentsline {chapter}{{Bibliography}}{54}{chapter*.7}}
\bibcite{neutrino}{15}
\bibcite{wein}{16}
\bibcite{ADMX}{17}
\bibcite{turner}{18}
\bibcite{Griest}{19}
\bibcite{Kamionkowski}{20}
\bibcite{LHC}{21}
\bibcite{LAT}{22}
\bibcite{witten}{23}
\bibcite{hertel}{24}
\bibcite{lisanti}{25}
\bibcite{moore}{26}
\bibcite{DAMA}{27}
\bibcite{knoll}{28}
\bibcite{CDMS_plots}{29}
\bibcite{blas}{30}
\bibcite{lindhard}{31}
\bibcite{irwin}{32}
\bibcite{geant_phonons}{33}
\bibcite{iZIP}{34}
\bibcite{midas_ref}{35}
\bibcite{root}{36}
\bibcite{Jeff_thesis}{37}
\bibcite{nr}{38}
\bibcite{Dutt_Rokhlin}{39}
\bibcite{Greengard_Lee}{40}
\bibcite{matrix_invert}{41}
\bibcite{scargle}{42}
\bibcite{triggertaskforce}{43}
\bibcite{rito}{44}
\@writefile{toc}{\contentsline {part}{{Appendices}}{}{}}
\@writefile{toc}{\contentsline {chapter}{\numberline {A}{The Imaginary Component of Zero and Nyquist Frequency}}{58}{appendix.A}}
\@writefile{lof}{\addvspace {10\p@ }}
\@writefile{lot}{\addvspace {10\p@ }}
\@writefile{lop}{\addvspace {10\p@ }}
\newlabel{ap: imag_comp}{{A}{58}{The Imaginary Component of Zero and Nyquist Frequency\relax }{appendix.A}{}}
\newlabel{sym_0}{{A.1}{58}{The Imaginary Component of Zero and Nyquist Frequency\relax }{equation.A.0.1}{}}
\newlabel{imp_values}{{A}{58}{The Imaginary Component of Zero and Nyquist Frequency\relax }{equation.A.0.1}{}}
\newlabel{sym_N}{{A.2}{58}{The Imaginary Component of Zero and Nyquist Frequency\relax }{equation.A.0.2}{}}
\@writefile{toc}{\contentsline {chapter}{\numberline {B}{Derivation of Aliasing Frequencies}}{60}{appendix.B}}
\@writefile{lof}{\addvspace {10\p@ }}
\@writefile{lot}{\addvspace {10\p@ }}
\@writefile{lop}{\addvspace {10\p@ }}
\newlabel{alias_deriv}{{B}{60}{Derivation of Aliasing Frequencies\relax }{appendix.B}{}}
\newlabel{dft}{{B.1}{60}{Derivation of Aliasing Frequencies\relax }{equation.B.0.1}{}}
\newlabel{trace_GN}{{B.2}{60}{Derivation of Aliasing Frequencies\relax }{equation.B.0.2}{}}
\newlabel{dft}{{B.4}{60}{Derivation of Aliasing Frequencies\relax }{equation.B.0.4}{}}
\newlabel{f_GN_init}{{B.5}{61}{Derivation of Aliasing Frequencies\relax }{equation.B.0.5}{}}
\newlabel{alias_forumla}{{B.6}{61}{Derivation of Aliasing Frequencies\relax }{equation.B.0.6}{}}
\newlabel{alias_formula}{{B}{61}{Derivation of Aliasing Frequencies\relax }{equation.B.0.6}{}}
