%!PS-Adobe-3.0 EPSF-3.0 
%%BoundingBox: 0 0 792 194
%%Pages: 0
%%Creator: LibreOffice 4.3
%%Title: none
%%CreationDate: none
%%LanguageLevel: 2
%%EndComments
%%BeginProlog
%%BeginResource: procset SDRes-Prolog 1.0 0
/b4_inc_state save def
/dict_count countdictstack def
/op_count count 1 sub def
userdict begin
0 setgray 0 setlinecap 1 setlinewidth 0 setlinejoin 10 setmiterlimit[] 0 setdash newpath
/languagelevel where {pop languagelevel 1 ne {false setstrokeadjust false setoverprint} if} if
/bdef {bind def} bind def
/c {setrgbcolor} bdef
/l {neg lineto} bdef
/rl {neg rlineto} bdef
/lc {setlinecap} bdef
/lj {setlinejoin} bdef
/lw {setlinewidth} bdef
/ml {setmiterlimit} bdef
/ld {setdash} bdef
/m {neg moveto} bdef
/ct {6 2 roll neg 6 2 roll neg 6 2 roll neg curveto} bdef
/r {rotate} bdef
/t {neg translate} bdef
/s {scale} bdef
/sw {show} bdef
/gs {gsave} bdef
/gr {grestore} bdef
/f {findfont dup length dict begin
{1 index /FID ne {def} {pop pop} ifelse} forall /Encoding ISOLatin1Encoding def
currentdict end /NFont exch definefont pop /NFont findfont} bdef
/p {closepath} bdef
/sf {scalefont setfont} bdef
/ef {eofill}bdef
/pc {closepath stroke}bdef
/ps {stroke}bdef
/pum {matrix currentmatrix}bdef
/pom {setmatrix}bdef
/bs {/aString exch def /nXOfs exch def /nWidth exch def currentpoint nXOfs 0 rmoveto pum nWidth aString stringwidth pop div 1 scale aString show pom moveto} bdef
%%EndResource
%%EndProlog
%%BeginSetup
%%EndSetup
%%Page: 1 1
%%BeginPageSetup
%%EndPageSetup
pum
0.02834 0.02828 s 
0 -6858 t
/tm matrix currentmatrix def
gs
0 0 m 27939 0 l 27939 6857 l 0 6857 l 0 0 l eoclip newpath
gs
0 0 m 27939 0 l 27939 6857 l 0 6857 l 0 0 l eoclip newpath
1.000 1.000 1.000 c 0 0 m  27939 0 l  27939 6857 l  0 6857 l  0 0 l  p ef
0.449 0.625 0.812 c 13114 4425 m  1635 4425 l  1635 2080 l  24593 2080 l 
24593 4425 l  13114 4425 l  p ef
102 lw 1 lj 0.003 0.003 0.003 c 13114 4425 m  1635 4425 l  1635 2080 l  24593 2080 l 
24593 4425 l  13114 4425 l  pc
1.000 0.203 0.203 c 13114 4444 m  13011 4444 l  13011 2034 l  13216 2034 l 
13216 4444 l  13114 4444 l  p ef
51 lw 0.003 0.003 0.003 c 13114 4444 m  13011 4444 l  13011 2034 l  13216 2034 l 
13216 4444 l  13114 4444 l  pc
pum
2229 3531 t
268 -201 m  268 -458 l  86 -201 l  p
269 0 m  269 -139 l  21 -139 l  21 -208 l  280 -569 l  341 -569 l  341 -201 l 
424 -201 l  424 -139 l  341 -139 l  341 0 l  p ef
830 -476 m  855 -430 868 -366 868 -284 ct 868 -207 856 -143 833 -93 ct 800 -21 745 15 670 15 ct 
602 15 551 -14 518 -73 ct 490 -123 476 -189 476 -272 ct 476 -336 485 -392 501 -438 ct 
532 -524 589 -567 670 -567 ct 744 -567 797 -537 830 -476 ct p
758 -99 m  780 -131 791 -192 791 -282 ct 791 -346 783 -399 767 -441 ct 751 -482 720 -503 675 -503 ct 
633 -503 602 -483 583 -444 ct 563 -404 554 -346 554 -269 ct 554 -211 560 -165 572 -130 ct 
591 -76 624 -49 670 -49 ct 707 -49 736 -66 758 -99 ct p ef
1010 -137 m  1012 -98 1027 -70 1055 -55 ct 1070 -48 1086 -44 1104 -44 ct 1138 -44 1167 -58 1191 -86 ct 
1215 -115 1233 -172 1243 -259 ct 1227 -234 1207 -216 1184 -206 ct 1160 -196 1135 -191 1108 -191 ct 
1054 -191 1010 -208 979 -242 ct 947 -276 931 -320 931 -373 ct 931 -425 947 -470 978 -509 ct 
1009 -548 1056 -568 1117 -568 ct 1200 -568 1257 -531 1288 -456 ct 1306 -415 1314 -364 1314 -303 ct 
1314 -233 1304 -172 1283 -118 ct 1248 -29 1190 16 1107 16 ct 1052 16 1010 1 981 -28 ct 
952 -57 938 -93 938 -137 ct p
1195 -281 m  1219 -300 1230 -333 1230 -379 ct 1230 -421 1220 -452 1199 -472 ct 
1178 -493 1151 -503 1119 -503 ct 1084 -503 1056 -491 1036 -468 ct 1015 -445 1005 -413 1005 -374 ct 
1005 -337 1014 -308 1032 -286 ct 1050 -264 1078 -253 1118 -253 ct 1146 -253 1172 -263 1195 -281 ct 
p ef
1723 -520 m  1748 -487 1760 -453 1760 -419 ct 1690 -419 l  1685 -441 1679 -459 1669 -471 ct 
1652 -495 1626 -507 1591 -507 ct 1552 -507 1520 -488 1496 -452 ct 1473 -415 1460 -362 1457 -293 ct 
1474 -317 1494 -335 1519 -347 ct 1542 -358 1567 -363 1595 -363 ct 1642 -363 1684 -348 1719 -318 ct 
1755 -287 1772 -242 1772 -182 ct 1772 -130 1756 -85 1722 -45 ct 1689 -5 1641 15 1579 15 ct 
1526 15 1480 -5 1441 -46 ct 1403 -86 1383 -154 1383 -249 ct 1383 -320 1392 -379 1409 -428 ct 
1442 -522 1503 -569 1590 -569 ct 1654 -569 1698 -553 1723 -520 ct p
1669 -87 m  1688 -112 1697 -142 1697 -176 ct 1697 -205 1689 -233 1672 -259 ct 
1656 -285 1625 -298 1581 -298 ct 1551 -298 1524 -288 1501 -268 ct 1478 -247 1466 -217 1466 -176 ct 
1466 -140 1477 -110 1498 -85 ct 1519 -61 1548 -49 1585 -49 ct 1623 -49 1651 -61 1669 -87 ct 
p ef
2124 -133 m  2126 -109 2132 -91 2141 -78 ct 2159 -55 2191 -44 2235 -44 ct 2261 -44 2285 -50 2305 -61 ct 
2325 -73 2335 -90 2335 -114 ct 2335 -133 2327 -147 2311 -156 ct 2300 -162 2280 -169 2250 -176 ct 
2193 -190 l  2157 -199 2130 -209 2113 -221 ct 2082 -240 2067 -267 2067 -301 ct 
2067 -341 2081 -373 2110 -398 ct 2139 -423 2178 -435 2227 -435 ct 2291 -435 2337 -416 2365 -379 ct 
2383 -355 2391 -330 2391 -302 ct 2324 -302 l  2322 -318 2317 -333 2307 -346 ct 
2290 -365 2262 -374 2221 -374 ct 2195 -374 2174 -369 2160 -359 ct 2146 -348 2139 -335 2139 -318 ct 
2139 -300 2149 -285 2167 -274 ct 2177 -267 2193 -261 2214 -256 ct 2261 -245 l 
2312 -232 2346 -220 2364 -209 ct 2391 -190 2405 -162 2405 -123 ct 2405 -85 2391 -52 2362 -25 ct 
2334 3 2290 16 2231 16 ct 2168 16 2124 2 2097 -27 ct 2071 -55 2057 -91 2055 -133 ct 
p ef
2563 -64 m  2579 -52 2596 -46 2617 -46 ct 2642 -46 2666 -52 2690 -64 ct 2729 -83 2749 -115 2749 -158 ct 
2749 -216 l  2741 -210 2729 -206 2716 -202 ct 2702 -198 2688 -196 2675 -194 ct 
2632 -188 l  2606 -185 2587 -180 2574 -172 ct 2552 -160 2541 -140 2541 -113 ct 
2541 -92 2548 -76 2563 -64 ct p
2714 -257 m  2730 -259 2741 -266 2746 -278 ct 2750 -284 2751 -293 2751 -305 ct 
2751 -329 2743 -347 2725 -358 ct 2708 -369 2683 -374 2651 -374 ct 2614 -374 2587 -364 2572 -344 ct 
2563 -333 2557 -317 2555 -295 ct 2488 -295 l  2490 -347 2507 -383 2539 -404 ct 
2572 -424 2610 -434 2653 -434 ct 2702 -434 2743 -425 2774 -406 ct 2805 -387 2820 -357 2820 -317 ct 
2820 -73 l  2820 -65 2822 -60 2825 -55 ct 2828 -51 2834 -48 2844 -48 ct 2847 -48 2851 -49 2855 -49 ct 
2859 -49 2863 -50 2868 -51 ct 2868 2 l  2857 5 2848 7 2842 8 ct 2836 9 2829 9 2819 9 ct 
2794 9 2776 0 2765 -17 ct 2759 -26 2755 -39 2753 -56 ct 2738 -37 2717 -21 2690 -7 ct 
2663 7 2633 14 2600 14 ct 2561 14 2529 2 2504 -22 ct 2479 -45 2466 -75 2466 -111 ct 
2466 -151 2479 -181 2503 -203 ct 2528 -224 2560 -238 2600 -243 ct p ef
2938 -424 m  3009 -424 l  3009 -364 l  3026 -385 3041 -400 3055 -409 ct 3078 -426 3105 -434 3135 -434 ct 
3168 -434 3196 -425 3216 -409 ct 3228 -399 3238 -385 3248 -367 ct 3264 -389 3282 -406 3304 -417 ct 
3325 -428 3349 -434 3376 -434 ct 3433 -434 3472 -413 3492 -372 ct 3503 -350 3509 -320 3509 -282 ct 
3509 0 l  3435 0 l  3435 -295 l  3435 -323 3428 -342 3414 -353 ct 3400 -363 3382 -369 3362 -369 ct 
3334 -369 3310 -359 3290 -341 ct 3270 -322 3259 -291 3259 -247 ct 3259 0 l  3187 0 l 
3187 -277 l  3187 -306 3184 -327 3177 -340 ct 3166 -360 3146 -369 3116 -369 ct 
3089 -369 3065 -359 3043 -338 ct 3021 -317 3010 -280 3010 -225 ct 3010 0 l  2938 0 l 
p ef
3875 -90 m  3897 -118 3908 -159 3908 -215 ct 3908 -248 3903 -277 3894 -302 ct 
3875 -348 3841 -372 3792 -372 ct 3743 -372 3709 -347 3691 -298 ct 3681 -271 3676 -238 3676 -197 ct 
3676 -164 3681 -137 3691 -114 ct 3709 -70 3743 -48 3792 -48 ct 3826 -48 3853 -62 3875 -90 ct 
p
3608 -422 m  3677 -422 l  3677 -366 l  3691 -385 3707 -400 3724 -411 ct 3748 -426 3776 -434 3808 -434 ct 
3857 -434 3897 -416 3931 -379 ct 3964 -342 3981 -290 3981 -221 ct 3981 -129 3957 -63 3909 -23 ct 
3878 2 3842 14 3802 14 ct 3770 14 3743 7 3721 -7 ct 3709 -15 3695 -28 3679 -48 ct 
3679 169 l  3608 169 l  p ef
4066 -582 m  4138 -582 l  4138 0 l  4066 0 l  p ef
4508 -412 m  4537 -398 4558 -380 4573 -358 ct 4587 -336 4597 -311 4601 -283 ct 
4606 -263 4608 -232 4608 -189 ct 4297 -189 l  4298 -146 4308 -112 4327 -86 ct 
4346 -60 4376 -47 4416 -47 ct 4453 -47 4483 -59 4505 -84 ct 4518 -98 4526 -114 4532 -133 ct 
4602 -133 l  4600 -117 4594 -100 4583 -81 ct 4573 -62 4561 -46 4548 -34 ct 4527 -13 4500 1 4468 9 ct 
4451 13 4431 15 4410 15 ct 4357 15 4312 -4 4276 -43 ct 4239 -81 4221 -135 4221 -204 ct 
4221 -272 4239 -327 4276 -370 ct 4313 -412 4361 -434 4421 -434 ct 4451 -434 4480 -427 4508 -412 ct 
p
4535 -246 m  4532 -277 4525 -301 4514 -320 ct 4495 -354 4462 -371 4417 -371 ct 
4384 -371 4356 -360 4334 -336 ct 4312 -312 4300 -282 4299 -246 ct p ef
4738 -133 m  4740 -109 4746 -91 4755 -78 ct 4773 -55 4805 -44 4849 -44 ct 4875 -44 4899 -50 4919 -61 ct 
4939 -73 4949 -90 4949 -114 ct 4949 -133 4941 -147 4925 -156 ct 4914 -162 4894 -169 4864 -176 ct 
4807 -190 l  4771 -199 4744 -209 4727 -221 ct 4696 -240 4681 -267 4681 -301 ct 
4681 -341 4695 -373 4724 -398 ct 4753 -423 4792 -435 4841 -435 ct 4905 -435 4951 -416 4979 -379 ct 
4997 -355 5005 -330 5005 -302 ct 4938 -302 l  4936 -318 4931 -333 4921 -346 ct 
4904 -365 4876 -374 4835 -374 ct 4809 -374 4788 -369 4774 -359 ct 4760 -348 4753 -335 4753 -318 ct 
4753 -300 4763 -285 4781 -274 ct 4791 -267 4807 -261 4828 -256 ct 4875 -245 l 
4926 -232 4960 -220 4978 -209 ct 5005 -190 5019 -162 5019 -123 ct 5019 -85 5005 -52 4976 -25 ct 
4948 3 4904 16 4845 16 ct 4782 16 4738 2 4711 -27 ct 4685 -55 4671 -91 4669 -133 ct 
p ef
5116 83 m  5135 80 5147 67 5155 44 ct 5159 32 5161 21 5161 10 ct 5161 8 5161 6 5160 5 ct 
5160 3 5160 2 5159 0 ct 5116 0 l  5116 -86 l  5201 -86 l  5201 -6 l  5201 25 5195 53 5182 76 ct 
5169 100 5147 115 5116 120 ct p ef
5577 -402 m  5577 -456 l  5628 -461 5664 -470 5684 -481 ct 5705 -493 5720 -521 5730 -565 ct 
5786 -565 l  5786 0 l  5710 0 l  5710 -402 l  p ef
6051 -145 m  6056 -104 6075 -76 6108 -60 ct 6125 -52 6144 -48 6166 -48 ct 6209 -48 6240 -62 6260 -89 ct 
6281 -116 6291 -145 6291 -178 ct 6291 -218 6279 -248 6255 -270 ct 6230 -292 6201 -303 6168 -303 ct 
6143 -303 6122 -298 6104 -288 ct 6087 -279 6072 -266 6060 -249 ct 5998 -252 l 
6041 -558 l  6336 -558 l  6336 -489 l  6094 -489 l  6070 -331 l  6083 -341 6096 -349 6108 -354 ct 
6129 -362 6153 -367 6181 -367 ct 6233 -367 6277 -350 6313 -316 ct 6350 -283 6368 -240 6368 -189 ct 
6368 -135 6351 -88 6318 -47 ct 6285 -6 6232 14 6159 14 ct 6113 14 6072 1 6037 -25 ct 
6001 -51 5981 -91 5977 -145 ct p ef
6772 -520 m  6797 -487 6809 -453 6809 -419 ct 6739 -419 l  6734 -441 6728 -459 6718 -471 ct 
6701 -495 6675 -507 6640 -507 ct 6601 -507 6569 -488 6545 -452 ct 6522 -415 6509 -362 6506 -293 ct 
6523 -317 6543 -335 6568 -347 ct 6591 -358 6616 -363 6644 -363 ct 6691 -363 6733 -348 6768 -318 ct 
6804 -287 6821 -242 6821 -182 ct 6821 -130 6805 -85 6771 -45 ct 6738 -5 6690 15 6628 15 ct 
6575 15 6529 -5 6490 -46 ct 6452 -86 6432 -154 6432 -249 ct 6432 -320 6441 -379 6458 -428 ct 
6491 -522 6552 -569 6639 -569 ct 6703 -569 6747 -553 6772 -520 ct p
6718 -87 m  6737 -112 6746 -142 6746 -176 ct 6746 -205 6738 -233 6721 -259 ct 
6705 -285 6674 -298 6630 -298 ct 6600 -298 6573 -288 6550 -268 ct 6527 -247 6515 -217 6515 -176 ct 
6515 -140 6526 -110 6547 -85 ct 6568 -61 6597 -49 6634 -49 ct 6672 -49 6700 -61 6718 -87 ct 
p ef
6922 -86 m  7005 -86 l  7005 0 l  6922 0 l  p ef
7134 -128 m  7151 -164 7185 -197 7236 -226 ct 7312 -270 l  7346 -290 7370 -307 7384 -321 ct 
7406 -343 7417 -368 7417 -396 ct 7417 -429 7407 -455 7387 -475 ct 7367 -494 7341 -504 7308 -504 ct 
7259 -504 7225 -485 7206 -448 ct 7196 -428 7191 -401 7190 -366 ct 7117 -366 l 
7118 -415 7127 -456 7145 -487 ct 7175 -542 7230 -569 7308 -569 ct 7373 -569 7420 -551 7450 -516 ct 
7480 -481 7495 -442 7495 -399 ct 7495 -354 7479 -315 7447 -283 ct 7429 -264 7396 -241 7348 -215 ct 
7294 -185 l  7268 -170 7248 -157 7233 -144 ct 7206 -121 7190 -95 7183 -67 ct 
7493 -67 l  7493 0 l  7103 0 l  7106 -49 7116 -91 7134 -128 ct p ef
7629 -145 m  7634 -104 7653 -76 7686 -60 ct 7703 -52 7722 -48 7744 -48 ct 7787 -48 7818 -62 7838 -89 ct 
7859 -116 7869 -145 7869 -178 ct 7869 -218 7857 -248 7833 -270 ct 7808 -292 7779 -303 7746 -303 ct 
7721 -303 7700 -298 7682 -288 ct 7665 -279 7650 -266 7638 -249 ct 7576 -252 l 
7619 -558 l  7914 -558 l  7914 -489 l  7672 -489 l  7648 -331 l  7661 -341 7674 -349 7686 -354 ct 
7707 -362 7731 -367 7759 -367 ct 7811 -367 7855 -350 7891 -316 ct 7928 -283 7946 -240 7946 -189 ct 
7946 -135 7929 -88 7896 -47 ct 7863 -6 7810 14 7737 14 ct 7691 14 7650 1 7615 -25 ct 
7579 -51 7559 -91 7555 -145 ct p ef
8359 -476 m  8384 -430 8397 -366 8397 -284 ct 8397 -207 8385 -143 8362 -93 ct 
8329 -21 8274 15 8199 15 ct 8131 15 8080 -14 8047 -73 ct 8019 -123 8005 -189 8005 -272 ct 
8005 -336 8014 -392 8030 -438 ct 8061 -524 8118 -567 8199 -567 ct 8273 -567 8326 -537 8359 -476 ct 
p
8287 -99 m  8309 -131 8320 -192 8320 -282 ct 8320 -346 8312 -399 8296 -441 ct 
8280 -482 8249 -503 8204 -503 ct 8162 -503 8131 -483 8112 -444 ct 8092 -404 8083 -346 8083 -269 ct 
8083 -211 8089 -165 8101 -130 ct 8120 -76 8153 -49 8199 -49 ct 8236 -49 8265 -66 8287 -99 ct 
p ef
8707 -582 m  8775 -582 l  8775 -244 l  8958 -424 l  9049 -424 l  8887 -265 l 
9058 0 l  8967 0 l  8835 -214 l  8775 -159 l  8775 0 l  8707 0 l  p ef
9126 -582 m  9205 -582 l  9205 -341 l  9508 -341 l  9508 -582 l  9587 -582 l 
9587 0 l  9508 0 l  9508 -272 l  9205 -272 l  9205 0 l  9126 0 l  p ef
9669 -56 m  9920 -360 l  9687 -360 l  9687 -424 l  10016 -424 l  10016 -366 l 
9766 -64 l  10023 -64 l  10023 0 l  9669 0 l  p ef
44 -575 m  53 -575 l  54 -568 l  54 -208 l  66 -208 l  67 -202 l  67 -145 l 
66 -139 l  54 -139 l  54 -6 l  53 0 l  42 0 l  41 -6 l  41 -139 l  3 -139 l 
2 -145 l  2 -208 l  3 -221 l  39 -531 l  42 -562 l  p
40 -442 m  14 -208 l  41 -208 l  41 -448 l  p ef
480 -568 m  495 -568 l  504 -543 l  511 -499 l  515 -442 l  519 -322 l 
519 -246 l  517 -158 l  514 -101 l  512 -76 l  510 -57 l  503 -13 l  500 0 l 
498 0 l  495 6 l  494 13 l  480 13 l  477 6 l  471 -13 l  465 -50 l  461 -101 l 
456 -215 l  456 -335 l  457 -379 l  459 -429 l  463 -486 l  466 -512 l 
471 -543 l  p
479 -486 m  475 -461 l  472 -423 l  471 -404 l  469 -322 l  469 -227 l 
473 -126 l  475 -95 l  479 -69 l  480 -69 l  482 -63 l  483 -57 l  491 -57 l 
494 -63 l  497 -76 l  500 -95 l  502 -114 l  505 -183 l  506 -253 l  506 -303 l 
505 -373 l  503 -429 l  500 -467 l  497 -486 l  496 -486 l  494 -493 l 
493 -499 l  483 -499 l  p ef
937 -575 m  940 -575 l  947 -568 l  954 -549 l  957 -537 l  962 -505 l 
964 -486 l  968 -429 l  970 -360 l  970 -246 l  967 -164 l  962 -76 l 
960 -57 l  953 -13 l  944 13 l  929 13 l  926 6 l  922 -6 l  918 -25 l 
916 -31 l  911 -101 l  911 -139 l  912 -145 l  922 -145 l  923 -139 l 
923 -120 l  923 -101 l  925 -88 l  929 -63 l  933 -50 l  940 -50 l  941 -57 l 
944 -63 l  946 -63 l  948 -76 l  950 -88 l  953 -114 l  957 -208 l  957 -246 l 
953 -215 l  940 -189 l  933 -189 l  929 -196 l  926 -202 l  923 -208 l 
921 -221 l  915 -259 l  912 -278 l  911 -303 l  909 -329 l  909 -423 l 
914 -486 l  916 -505 l  922 -543 l  927 -562 l  930 -568 l  p
929 -486 m  925 -455 l  922 -398 l  922 -354 l  923 -310 l  926 -291 l 
927 -278 l  934 -259 l  943 -259 l  946 -265 l  950 -278 l  953 -303 l 
955 -329 l  957 -354 l  957 -404 l  955 -436 l  954 -448 l  953 -467 l 
950 -480 l  947 -493 l  944 -499 l  933 -499 l  p ef
1390 -575 m  1400 -575 l  1412 -549 l  1417 -518 l  1419 -499 l  1422 -455 l 
1422 -423 l  1421 -417 l  1411 -417 l  1410 -423 l  1410 -429 l  1409 -448 l 
1407 -474 l  1404 -493 l  1403 -493 l  1400 -499 l  1399 -505 l  1392 -505 l 
1389 -499 l  1385 -486 l  1382 -467 l  1380 -448 l  1378 -423 l  1376 -385 l 
1375 -354 l  1375 -310 l  1379 -335 l  1382 -347 l  1386 -360 l  1389 -366 l 
1402 -366 l  1412 -341 l  1420 -291 l  1424 -227 l  1424 -145 l  1423 -120 l 
1419 -69 l  1417 -50 l  1414 -31 l  1410 -13 l  1404 6 l  1400 13 l  1387 13 l 
1386 6 l  1380 -6 l  1379 -6 l  1376 -19 l  1368 -69 l  1365 -107 l  1362 -183 l 
1362 -329 l  1368 -467 l  1371 -499 l  1378 -543 l  1386 -568 l  p
1389 -291 m  1386 -284 l  1384 -284 l  1378 -246 l  1378 -240 l  1377 -215 l 
1376 -208 l  1376 -145 l  1377 -126 l  1379 -101 l  1384 -69 l  1385 -69 l 
1388 -63 l  1389 -57 l  1399 -57 l  1402 -63 l  1404 -69 l  1407 -88 l 
1409 -107 l  1410 -120 l  1411 -139 l  1411 -215 l  1408 -259 l  1405 -278 l 
1402 -291 l  1398 -297 l  1390 -297 l  p ef
2292 -442 m  2297 -442 l  2304 -436 l  2311 -417 l  2319 -366 l  2319 -360 l 
2320 -341 l  2321 -335 l  2321 -310 l  2320 -303 l  2310 -303 l  2309 -310 l 
2309 -329 l  2307 -347 l  2305 -360 l  2303 -360 l  2300 -366 l  2299 -373 l 
2289 -373 l  2285 -360 l  2282 -341 l  2282 -297 l  2285 -278 l  2287 -272 l 
2314 -221 l  2319 -202 l  2320 -196 l  2322 -177 l  2323 -158 l  2323 -95 l 
2322 -76 l  2320 -50 l  2314 -13 l  2308 6 l  2304 13 l  2296 19 l  2295 19 l 
2278 -6 l  2271 -50 l  2269 -76 l  2267 -120 l  2267 -133 l  2268 -139 l 
2278 -139 l  2279 -133 l  2281 -95 l  2281 -88 l  2285 -63 l  2286 -63 l 
2290 -57 l  2291 -50 l  2300 -50 l  2304 -57 l  2308 -69 l  2310 -82 l 
2311 -95 l  2311 -133 l  2310 -145 l  2308 -158 l  2282 -202 l  2276 -221 l 
2271 -253 l  2271 -259 l  2270 -278 l  2269 -284 l  2269 -329 l  2270 -347 l 
2272 -373 l  2279 -417 l  p ef
2750 -442 m  2752 -442 l  2761 -436 l  2771 -404 l  2774 -385 l  2774 -379 l 
2777 -354 l  2778 -347 l  2778 -69 l  2778 -57 l  2784 -57 l  2785 -50 l 
2785 0 l  2784 6 l  2773 6 l  2771 0 l  2768 -19 l  2767 -31 l  2767 -50 l 
2766 -50 l  2762 -25 l  2759 -13 l  2749 13 l  2737 13 l  2734 6 l  2730 -6 l 
2724 -44 l  2722 -69 l  2721 -95 l  2721 -139 l  2723 -171 l  2726 -202 l 
2727 -208 l  2731 -227 l  2733 -234 l  2739 -246 l  2753 -259 l  2760 -259 l 
2763 -265 l  2766 -284 l  2766 -329 l  2764 -341 l  2762 -360 l  2760 -366 l 
2756 -373 l  2746 -373 l  2745 -366 l  2742 -360 l  2741 -360 l  2738 -341 l 
2737 -329 l  2736 -310 l  2736 -297 l  2735 -291 l  2726 -291 l  2725 -297 l 
2725 -335 l  2728 -379 l  2733 -410 l  2739 -429 l  2743 -436 l  p
2742 -183 m  2738 -171 l  2735 -152 l  2734 -139 l  2734 -95 l  2735 -82 l 
2737 -69 l  2740 -57 l  2745 -50 l  2746 -50 l  2752 -57 l  2755 -63 l 
2759 -76 l  2764 -107 l  2764 -120 l  2764 -145 l  2766 -152 l  2766 -215 l 
p ef
3202 -436 m  3214 -436 l  3215 -429 l  3218 -423 l  3219 -423 l  3225 -385 l 
3225 -379 l  3226 -373 l  3227 -379 l  3227 -385 l  3230 -404 l  3234 -423 l 
3240 -436 l  3252 -436 l  3259 -417 l  3263 -391 l  3265 -373 l  3266 -360 l 
3267 -335 l  3267 -6 l  3266 0 l  3256 0 l  3255 -6 l  3255 -303 l  3254 -335 l 
3250 -360 l  3248 -366 l  3239 -366 l  3235 -354 l  3230 -322 l  3230 -316 l 
3229 -291 l  3228 -284 l  3228 -6 l  3227 0 l  3216 0 l  3215 -6 l  3215 -227 l 
3216 -234 l  3216 -272 l  3215 -329 l  3214 -341 l  3211 -360 l  3209 -366 l 
3201 -366 l  3198 -360 l  3196 -354 l  3192 -329 l  3190 -303 l  3189 -284 l 
3189 -6 l  3188 0 l  3177 0 l  3176 -6 l  3176 -423 l  3177 -429 l  3187 -429 l 
3188 -423 l  3188 -373 l  3194 -410 l  3197 -423 l  3199 -429 l  p ef
3660 -442 m  3661 -442 l  3674 -417 l  3678 -398 l  3681 -379 l  3684 -354 l 
3685 -341 l  3688 -278 l  3688 -158 l  3683 -69 l  3679 -38 l  3676 -19 l 
3673 -6 l  3669 6 l  3665 13 l  3653 13 l  3649 0 l  3641 -38 l  3641 158 l 
3639 171 l  3630 171 l  3628 158 l  3628 -417 l  3630 -429 l  3639 -429 l 
3640 -423 l  3640 -373 l  3647 -417 l  p
3652 -366 m  3648 -354 l  3645 -335 l  3641 -278 l  3640 -234 l  3640 -177 l 
3641 -139 l  3642 -120 l  3644 -95 l  3648 -69 l  3652 -57 l  3663 -57 l 
3664 -63 l  3666 -69 l  3667 -69 l  3671 -95 l  3673 -114 l  3675 -145 l 
3676 -183 l  3676 -240 l  3672 -322 l  3671 -335 l  3668 -354 l  3667 -354 l 
3665 -360 l  3664 -366 l  3659 -373 l  3657 -373 l  p ef
4084 -587 m  4094 -587 l  4095 -581 l  4095 -6 l  4094 0 l  4084 0 l  4083 -6 l 
4083 -581 l  p ef
4556 -436 m  4570 -436 l  4575 -423 l  4584 -391 l  4589 -354 l  4592 -291 l 
4594 -227 l  4594 -196 l  4593 -189 l  4545 -189 l  4545 -152 l  4549 -88 l 
4552 -69 l  4556 -57 l  4562 -50 l  4564 -50 l  4569 -57 l  4576 -82 l 
4577 -88 l  4579 -107 l  4580 -120 l  4580 -133 l  4581 -139 l  4592 -139 l 
4593 -133 l  4591 -95 l  4590 -82 l  4588 -63 l  4580 -13 l  4570 13 l 
4555 13 l  4552 6 l  4546 -13 l  4540 -44 l  4537 -69 l  4533 -120 l  4532 -152 l 
4532 -265 l  4536 -335 l  4538 -347 l  4540 -366 l  4540 -373 l  4542 -385 l 
4547 -410 l  4553 -429 l  p
4557 -366 m  4553 -354 l  4548 -322 l  4545 -272 l  4545 -253 l  4581 -253 l 
4581 -265 l  4579 -310 l  4578 -322 l  4576 -341 l  4575 -347 l  4564 -373 l 
4562 -373 l  p ef
5008 -442 m  5013 -442 l  5020 -436 l  5027 -417 l  5035 -366 l  5035 -360 l 
5036 -341 l  5037 -335 l  5037 -310 l  5036 -303 l  5026 -303 l  5025 -310 l 
5025 -329 l  5023 -347 l  5021 -360 l  5019 -360 l  5016 -366 l  5015 -373 l 
5005 -373 l  5001 -360 l  4998 -341 l  4998 -297 l  5001 -278 l  5003 -272 l 
5030 -221 l  5035 -202 l  5036 -196 l  5038 -177 l  5039 -158 l  5039 -95 l 
5038 -76 l  5036 -50 l  5030 -13 l  5024 6 l  5020 13 l  5012 19 l  5011 19 l 
4994 -6 l  4987 -50 l  4985 -76 l  4983 -120 l  4983 -133 l  4984 -139 l 
4994 -139 l  4995 -133 l  4997 -95 l  4997 -88 l  5001 -63 l  5002 -63 l 
5006 -57 l  5007 -50 l  5016 -50 l  5020 -57 l  5024 -69 l  5026 -82 l 
5027 -95 l  5027 -133 l  5026 -145 l  5024 -158 l  4998 -202 l  4992 -221 l 
4987 -253 l  4987 -259 l  4986 -278 l  4985 -284 l  4985 -329 l  4986 -347 l 
4988 -373 l  4995 -417 l  p ef
5444 -95 m  5456 -95 l  5457 -88 l  5457 19 l  5454 76 l  5449 107 l  5447 114 l 
5444 120 l  5443 114 l  5443 82 l  5445 69 l  5446 69 l  5448 57 l  5448 44 l 
5449 19 l  5450 13 l  5450 0 l  5444 0 l  5443 -6 l  5443 -88 l  p ef
6375 -568 m  6383 -568 l  6384 -562 l  6384 -6 l  6383 0 l  6372 0 l  6371 -6 l 
6371 -398 l  6352 -398 l  6350 -410 l  6350 -455 l  6351 -461 l  6365 -480 l 
6368 -486 l  6371 -505 l  6373 -531 l  6374 -549 l  6374 -562 l  p ef
6805 -562 m  6851 -562 l  6852 -556 l  6852 -493 l  6851 -486 l  6814 -486 l 
6813 -480 l  6810 -360 l  6810 -341 l  6811 -341 l  6813 -354 l  6815 -360 l 
6818 -366 l  6823 -373 l  6831 -373 l  6844 -341 l  6848 -322 l  6853 -284 l 
6857 -208 l  6857 -177 l  6855 -114 l  6852 -76 l  6850 -57 l  6844 -19 l 
6831 13 l  6817 13 l  6813 6 l  6808 -6 l  6805 -19 l  6798 -63 l  6796 -88 l 
6794 -133 l  6794 -145 l  6795 -152 l  6806 -152 l  6807 -145 l  6809 -107 l 
6809 -101 l  6814 -69 l  6816 -63 l  6819 -57 l  6830 -57 l  6831 -63 l 
6834 -69 l  6835 -69 l  6840 -101 l  6843 -139 l  6844 -177 l  6844 -189 l 
6841 -253 l  6837 -278 l  6834 -291 l  6827 -303 l  6823 -303 l  6817 -291 l 
6807 -246 l  6804 -246 l  6798 -253 l  6797 -259 l  6798 -265 l  6804 -531 l 
6804 -556 l  p ef
7276 -575 m  7286 -575 l  7298 -549 l  7303 -518 l  7305 -499 l  7308 -455 l 
7308 -423 l  7307 -417 l  7297 -417 l  7296 -423 l  7296 -429 l  7295 -448 l 
7293 -474 l  7290 -493 l  7289 -493 l  7286 -499 l  7285 -505 l  7278 -505 l 
7275 -499 l  7271 -486 l  7268 -467 l  7266 -448 l  7264 -423 l  7262 -385 l 
7261 -354 l  7261 -310 l  7265 -335 l  7268 -347 l  7272 -360 l  7275 -366 l 
7288 -366 l  7298 -341 l  7306 -291 l  7310 -227 l  7310 -145 l  7309 -120 l 
7305 -69 l  7303 -50 l  7300 -31 l  7296 -13 l  7290 6 l  7286 13 l  7273 13 l 
7272 6 l  7266 -6 l  7265 -6 l  7262 -19 l  7254 -69 l  7251 -107 l  7248 -183 l 
7248 -329 l  7254 -467 l  7257 -499 l  7264 -543 l  7272 -568 l  p
7275 -291 m  7272 -284 l  7270 -284 l  7264 -246 l  7264 -240 l  7263 -215 l 
7262 -208 l  7262 -145 l  7263 -126 l  7265 -101 l  7270 -69 l  7271 -69 l 
7274 -63 l  7275 -57 l  7285 -57 l  7288 -63 l  7290 -69 l  7293 -88 l 
7295 -107 l  7296 -120 l  7297 -139 l  7297 -215 l  7294 -259 l  7291 -278 l 
7288 -291 l  7284 -297 l  7276 -297 l  p ef
7708 -95 m  7720 -95 l  7721 -88 l  7721 -6 l  7720 0 l  7708 0 l  7707 -6 l 
7707 -88 l  p ef
8181 -575 m  8190 -575 l  8203 -549 l  8206 -537 l  8210 -512 l  8212 -493 l 
8216 -423 l  8216 -379 l  8214 -335 l  8213 -322 l  8211 -303 l  8204 -259 l 
8186 -189 l  8182 -177 l  8181 -177 l  8174 -145 l  8171 -126 l  8169 -107 l 
8167 -82 l  8167 -76 l  8214 -76 l  8215 -69 l  8215 -6 l  8214 0 l  8154 0 l 
8153 -6 l  8153 -31 l  8154 -69 l  8156 -107 l  8159 -145 l  8161 -164 l 
8166 -196 l  8176 -240 l  8190 -291 l  8191 -291 l  8194 -303 l  8200 -341 l 
8202 -366 l  8202 -436 l  8201 -442 l  8200 -455 l  8200 -461 l  8196 -486 l 
8195 -486 l  8193 -493 l  8192 -499 l  8180 -499 l  8177 -493 l  8175 -486 l 
8171 -461 l  8169 -436 l  8168 -417 l  8168 -373 l  8167 -366 l  8156 -366 l 
8155 -373 l  8155 -398 l  8159 -486 l  8161 -505 l  8167 -543 l  8173 -562 l 
8176 -568 l  p ef
8616 -562 m  8662 -562 l  8663 -556 l  8663 -493 l  8662 -486 l  8625 -486 l 
8624 -480 l  8621 -360 l  8621 -341 l  8622 -341 l  8624 -354 l  8626 -360 l 
8629 -366 l  8634 -373 l  8642 -373 l  8655 -341 l  8659 -322 l  8664 -284 l 
8668 -208 l  8668 -177 l  8666 -114 l  8663 -76 l  8661 -57 l  8655 -19 l 
8642 13 l  8628 13 l  8624 6 l  8619 -6 l  8616 -19 l  8609 -63 l  8607 -88 l 
8605 -133 l  8605 -145 l  8606 -152 l  8617 -152 l  8618 -145 l  8620 -107 l 
8620 -101 l  8625 -69 l  8627 -63 l  8630 -57 l  8641 -57 l  8642 -63 l 
8645 -69 l  8646 -69 l  8651 -101 l  8654 -139 l  8655 -177 l  8655 -189 l 
8652 -253 l  8648 -278 l  8645 -291 l  8638 -303 l  8634 -303 l  8628 -291 l 
8618 -246 l  8615 -246 l  8609 -253 l  8608 -259 l  8609 -265 l  8615 -531 l 
8615 -556 l  p ef
9082 -568 m  9097 -568 l  9106 -543 l  9113 -499 l  9117 -442 l  9121 -322 l 
9121 -246 l  9119 -158 l  9116 -101 l  9114 -76 l  9112 -57 l  9105 -13 l 
9102 0 l  9100 0 l  9097 6 l  9096 13 l  9082 13 l  9079 6 l  9073 -13 l 
9067 -50 l  9063 -101 l  9058 -215 l  9058 -335 l  9059 -379 l  9061 -429 l 
9065 -486 l  9068 -512 l  9073 -543 l  p
9081 -486 m  9077 -461 l  9074 -423 l  9073 -404 l  9071 -322 l  9071 -227 l 
9075 -126 l  9077 -95 l  9081 -69 l  9082 -69 l  9084 -63 l  9085 -57 l 
9093 -57 l  9096 -63 l  9099 -76 l  9102 -95 l  9104 -114 l  9107 -183 l 
9108 -253 l  9108 -303 l  9107 -373 l  9105 -429 l  9102 -467 l  9099 -486 l 
9098 -486 l  9096 -493 l  9095 -499 l  9085 -499 l  p ef
9969 -587 m  9979 -587 l  9980 -581 l  9980 -253 l  10008 -429 l  10022 -429 l 
10023 -423 l  10018 -391 l  10017 -391 l  9998 -272 l  9998 -259 l  10000 -246 l 
10002 -227 l  10003 -215 l  10013 -114 l  10014 -101 l  10016 -82 l  10018 -69 l 
10024 -13 l  10024 -6 l  10023 0 l  10010 0 l  10008 -13 l  10004 -50 l 
10004 -57 l  10003 -69 l  9990 -196 l  9990 -202 l  9989 -208 l  9988 -208 l 
9983 -177 l  9982 -177 l  9980 -164 l  9980 -6 l  9979 0 l  9969 0 l  9968 -6 l 
9968 -581 l  p ef
10423 -587 m  10435 -587 l  10436 -581 l  10436 -347 l  10482 -347 l  10482 -581 l 
10483 -587 l  10495 -587 l  10496 -581 l  10496 -6 l  10495 0 l  10483 0 l 
10482 -6 l  10482 -272 l  10436 -272 l  10436 -6 l  10435 0 l  10423 0 l 
10422 -6 l  10422 -581 l  p ef
10872 -429 m  10923 -429 l  10924 -423 l  10924 -366 l  10921 -341 l  10916 -310 l 
10906 -234 l  10906 -227 l  10902 -196 l  10897 -164 l  10887 -88 l  10885 -69 l 
10924 -69 l  10925 -63 l  10925 -6 l  10924 0 l  10869 0 l  10868 -6 l 
10868 -57 l  10870 -76 l  10880 -152 l  10884 -177 l  10889 -215 l  10889 -221 l 
10899 -297 l  10903 -322 l  10908 -360 l  10872 -360 l  10871 -366 l  10871 -423 l 
p ef
pom
pum
13950 3463 t
268 -201 m  268 -458 l  86 -201 l  p
269 0 m  269 -139 l  21 -139 l  21 -208 l  280 -569 l  341 -569 l  341 -201 l 
424 -201 l  424 -139 l  341 -139 l  341 0 l  p ef
830 -476 m  855 -430 868 -366 868 -284 ct 868 -207 856 -143 833 -93 ct 800 -21 745 15 670 15 ct 
602 15 551 -14 518 -73 ct 490 -123 476 -189 476 -272 ct 476 -336 485 -392 501 -438 ct 
532 -524 589 -567 670 -567 ct 744 -567 797 -537 830 -476 ct p
758 -99 m  780 -131 791 -192 791 -282 ct 791 -346 783 -399 767 -441 ct 751 -482 720 -503 675 -503 ct 
633 -503 602 -483 583 -444 ct 563 -404 554 -346 554 -269 ct 554 -211 560 -165 572 -130 ct 
591 -76 624 -49 670 -49 ct 707 -49 736 -66 758 -99 ct p ef
967 -40 m  937 -77 921 -121 921 -174 ct 996 -174 l  999 -138 1006 -111 1016 -94 ct 
1035 -64 1068 -49 1117 -49 ct 1154 -49 1184 -60 1207 -80 ct 1230 -100 1241 -126 1241 -157 ct 
1241 -196 1229 -224 1205 -239 ct 1181 -255 1148 -263 1106 -263 ct 1101 -263 1096 -262 1091 -262 ct 
1086 -262 1081 -262 1076 -262 ct 1076 -325 l  1084 -324 1090 -323 1095 -323 ct 
1100 -323 1105 -323 1111 -323 ct 1138 -323 1160 -327 1177 -335 ct 1207 -350 1222 -377 1222 -415 ct 
1222 -443 1212 -465 1192 -480 ct 1172 -495 1148 -503 1122 -503 ct 1074 -503 1041 -487 1023 -455 ct 
1013 -438 1007 -413 1006 -381 ct 936 -381 l  936 -423 944 -459 961 -489 ct 990 -541 1041 -568 1114 -568 ct 
1172 -568 1217 -555 1248 -529 ct 1280 -504 1296 -466 1296 -417 ct 1296 -383 1287 -354 1268 -333 ct 
1256 -319 1241 -309 1223 -301 ct 1253 -293 1276 -277 1293 -254 ct 1309 -230 1318 -202 1318 -168 ct 
1318 -114 1300 -70 1264 -36 ct 1229 -2 1178 15 1113 15 ct 1046 15 997 -3 967 -40 ct 
p ef
1409 -128 m  1426 -164 1460 -197 1511 -226 ct 1587 -270 l  1621 -290 1645 -307 1659 -321 ct 
1681 -343 1692 -368 1692 -396 ct 1692 -429 1682 -455 1662 -475 ct 1642 -494 1616 -504 1583 -504 ct 
1534 -504 1500 -485 1481 -448 ct 1471 -428 1466 -401 1465 -366 ct 1392 -366 l 
1393 -415 1402 -456 1420 -487 ct 1450 -542 1505 -569 1583 -569 ct 1648 -569 1695 -551 1725 -516 ct 
1755 -481 1770 -442 1770 -399 ct 1770 -354 1754 -315 1722 -283 ct 1704 -264 1671 -241 1623 -215 ct 
1569 -185 l  1543 -170 1523 -157 1508 -144 ct 1481 -121 1465 -95 1458 -67 ct 
1768 -67 l  1768 0 l  1378 0 l  1381 -49 1391 -91 1409 -128 ct p ef
2124 -133 m  2126 -109 2132 -91 2141 -78 ct 2159 -55 2191 -44 2235 -44 ct 2261 -44 2285 -50 2305 -61 ct 
2325 -73 2335 -90 2335 -114 ct 2335 -133 2327 -147 2311 -156 ct 2300 -162 2280 -169 2250 -176 ct 
2193 -190 l  2157 -199 2130 -209 2113 -221 ct 2082 -240 2067 -267 2067 -301 ct 
2067 -341 2081 -373 2110 -398 ct 2139 -423 2178 -435 2227 -435 ct 2291 -435 2337 -416 2365 -379 ct 
2383 -355 2391 -330 2391 -302 ct 2324 -302 l  2322 -318 2317 -333 2307 -346 ct 
2290 -365 2262 -374 2221 -374 ct 2195 -374 2174 -369 2160 -359 ct 2146 -348 2139 -335 2139 -318 ct 
2139 -300 2149 -285 2167 -274 ct 2177 -267 2193 -261 2214 -256 ct 2261 -245 l 
2312 -232 2346 -220 2364 -209 ct 2391 -190 2405 -162 2405 -123 ct 2405 -85 2391 -52 2362 -25 ct 
2334 3 2290 16 2231 16 ct 2168 16 2124 2 2097 -27 ct 2071 -55 2057 -91 2055 -133 ct 
p ef
2563 -64 m  2579 -52 2596 -46 2617 -46 ct 2642 -46 2666 -52 2690 -64 ct 2729 -83 2749 -115 2749 -158 ct 
2749 -216 l  2741 -210 2729 -206 2716 -202 ct 2702 -198 2688 -196 2675 -194 ct 
2632 -188 l  2606 -185 2587 -180 2574 -172 ct 2552 -160 2541 -140 2541 -113 ct 
2541 -92 2548 -76 2563 -64 ct p
2714 -257 m  2730 -259 2741 -266 2746 -278 ct 2750 -284 2751 -293 2751 -305 ct 
2751 -329 2743 -347 2725 -358 ct 2708 -369 2683 -374 2651 -374 ct 2614 -374 2587 -364 2572 -344 ct 
2563 -333 2557 -317 2555 -295 ct 2488 -295 l  2490 -347 2507 -383 2539 -404 ct 
2572 -424 2610 -434 2653 -434 ct 2702 -434 2743 -425 2774 -406 ct 2805 -387 2820 -357 2820 -317 ct 
2820 -73 l  2820 -65 2822 -60 2825 -55 ct 2828 -51 2834 -48 2844 -48 ct 2847 -48 2851 -49 2855 -49 ct 
2859 -49 2863 -50 2868 -51 ct 2868 2 l  2857 5 2848 7 2842 8 ct 2836 9 2829 9 2819 9 ct 
2794 9 2776 0 2765 -17 ct 2759 -26 2755 -39 2753 -56 ct 2738 -37 2717 -21 2690 -7 ct 
2663 7 2633 14 2600 14 ct 2561 14 2529 2 2504 -22 ct 2479 -45 2466 -75 2466 -111 ct 
2466 -151 2479 -181 2503 -203 ct 2528 -224 2560 -238 2600 -243 ct p ef
2938 -424 m  3009 -424 l  3009 -364 l  3026 -385 3041 -400 3055 -409 ct 3078 -426 3105 -434 3135 -434 ct 
3168 -434 3196 -425 3216 -409 ct 3228 -399 3238 -385 3248 -367 ct 3264 -389 3282 -406 3304 -417 ct 
3325 -428 3349 -434 3376 -434 ct 3433 -434 3472 -413 3492 -372 ct 3503 -350 3509 -320 3509 -282 ct 
3509 0 l  3435 0 l  3435 -295 l  3435 -323 3428 -342 3414 -353 ct 3400 -363 3382 -369 3362 -369 ct 
3334 -369 3310 -359 3290 -341 ct 3270 -322 3259 -291 3259 -247 ct 3259 0 l  3187 0 l 
3187 -277 l  3187 -306 3184 -327 3177 -340 ct 3166 -360 3146 -369 3116 -369 ct 
3089 -369 3065 -359 3043 -338 ct 3021 -317 3010 -280 3010 -225 ct 3010 0 l  2938 0 l 
p ef
3875 -90 m  3897 -118 3908 -159 3908 -215 ct 3908 -248 3903 -277 3894 -302 ct 
3875 -348 3841 -372 3792 -372 ct 3743 -372 3709 -347 3691 -298 ct 3681 -271 3676 -238 3676 -197 ct 
3676 -164 3681 -137 3691 -114 ct 3709 -70 3743 -48 3792 -48 ct 3826 -48 3853 -62 3875 -90 ct 
p
3608 -422 m  3677 -422 l  3677 -366 l  3691 -385 3707 -400 3724 -411 ct 3748 -426 3776 -434 3808 -434 ct 
3857 -434 3897 -416 3931 -379 ct 3964 -342 3981 -290 3981 -221 ct 3981 -129 3957 -63 3909 -23 ct 
3878 2 3842 14 3802 14 ct 3770 14 3743 7 3721 -7 ct 3709 -15 3695 -28 3679 -48 ct 
3679 169 l  3608 169 l  p ef
4066 -582 m  4138 -582 l  4138 0 l  4066 0 l  p ef
4508 -412 m  4537 -398 4558 -380 4573 -358 ct 4587 -336 4597 -311 4601 -283 ct 
4606 -263 4608 -232 4608 -189 ct 4297 -189 l  4298 -146 4308 -112 4327 -86 ct 
4346 -60 4376 -47 4416 -47 ct 4453 -47 4483 -59 4505 -84 ct 4518 -98 4526 -114 4532 -133 ct 
4602 -133 l  4600 -117 4594 -100 4583 -81 ct 4573 -62 4561 -46 4548 -34 ct 4527 -13 4500 1 4468 9 ct 
4451 13 4431 15 4410 15 ct 4357 15 4312 -4 4276 -43 ct 4239 -81 4221 -135 4221 -204 ct 
4221 -272 4239 -327 4276 -370 ct 4313 -412 4361 -434 4421 -434 ct 4451 -434 4480 -427 4508 -412 ct 
p
4535 -246 m  4532 -277 4525 -301 4514 -320 ct 4495 -354 4462 -371 4417 -371 ct 
4384 -371 4356 -360 4334 -336 ct 4312 -312 4300 -282 4299 -246 ct p ef
4738 -133 m  4740 -109 4746 -91 4755 -78 ct 4773 -55 4805 -44 4849 -44 ct 4875 -44 4899 -50 4919 -61 ct 
4939 -73 4949 -90 4949 -114 ct 4949 -133 4941 -147 4925 -156 ct 4914 -162 4894 -169 4864 -176 ct 
4807 -190 l  4771 -199 4744 -209 4727 -221 ct 4696 -240 4681 -267 4681 -301 ct 
4681 -341 4695 -373 4724 -398 ct 4753 -423 4792 -435 4841 -435 ct 4905 -435 4951 -416 4979 -379 ct 
4997 -355 5005 -330 5005 -302 ct 4938 -302 l  4936 -318 4931 -333 4921 -346 ct 
4904 -365 4876 -374 4835 -374 ct 4809 -374 4788 -369 4774 -359 ct 4760 -348 4753 -335 4753 -318 ct 
4753 -300 4763 -285 4781 -274 ct 4791 -267 4807 -261 4828 -256 ct 4875 -245 l 
4926 -232 4960 -220 4978 -209 ct 5005 -190 5019 -162 5019 -123 ct 5019 -85 5005 -52 4976 -25 ct 
4948 3 4904 16 4845 16 ct 4782 16 4738 2 4711 -27 ct 4685 -55 4671 -91 4669 -133 ct 
p ef
5116 83 m  5135 80 5147 67 5155 44 ct 5159 32 5161 21 5161 10 ct 5161 8 5161 6 5160 5 ct 
5160 3 5160 2 5159 0 ct 5116 0 l  5116 -86 l  5201 -86 l  5201 -6 l  5201 25 5195 53 5182 76 ct 
5169 100 5147 115 5116 120 ct p ef
5577 -402 m  5577 -456 l  5628 -461 5664 -470 5684 -481 ct 5705 -493 5720 -521 5730 -565 ct 
5786 -565 l  5786 0 l  5710 0 l  5710 -402 l  p ef
6051 -145 m  6056 -104 6075 -76 6108 -60 ct 6125 -52 6144 -48 6166 -48 ct 6209 -48 6240 -62 6260 -89 ct 
6281 -116 6291 -145 6291 -178 ct 6291 -218 6279 -248 6255 -270 ct 6230 -292 6201 -303 6168 -303 ct 
6143 -303 6122 -298 6104 -288 ct 6087 -279 6072 -266 6060 -249 ct 5998 -252 l 
6041 -558 l  6336 -558 l  6336 -489 l  6094 -489 l  6070 -331 l  6083 -341 6096 -349 6108 -354 ct 
6129 -362 6153 -367 6181 -367 ct 6233 -367 6277 -350 6313 -316 ct 6350 -283 6368 -240 6368 -189 ct 
6368 -135 6351 -88 6318 -47 ct 6285 -6 6232 14 6159 14 ct 6113 14 6072 1 6037 -25 ct 
6001 -51 5981 -91 5977 -145 ct p ef
6772 -520 m  6797 -487 6809 -453 6809 -419 ct 6739 -419 l  6734 -441 6728 -459 6718 -471 ct 
6701 -495 6675 -507 6640 -507 ct 6601 -507 6569 -488 6545 -452 ct 6522 -415 6509 -362 6506 -293 ct 
6523 -317 6543 -335 6568 -347 ct 6591 -358 6616 -363 6644 -363 ct 6691 -363 6733 -348 6768 -318 ct 
6804 -287 6821 -242 6821 -182 ct 6821 -130 6805 -85 6771 -45 ct 6738 -5 6690 15 6628 15 ct 
6575 15 6529 -5 6490 -46 ct 6452 -86 6432 -154 6432 -249 ct 6432 -320 6441 -379 6458 -428 ct 
6491 -522 6552 -569 6639 -569 ct 6703 -569 6747 -553 6772 -520 ct p
6718 -87 m  6737 -112 6746 -142 6746 -176 ct 6746 -205 6738 -233 6721 -259 ct 
6705 -285 6674 -298 6630 -298 ct 6600 -298 6573 -288 6550 -268 ct 6527 -247 6515 -217 6515 -176 ct 
6515 -140 6526 -110 6547 -85 ct 6568 -61 6597 -49 6634 -49 ct 6672 -49 6700 -61 6718 -87 ct 
p ef
6922 -86 m  7005 -86 l  7005 0 l  6922 0 l  p ef
7134 -128 m  7151 -164 7185 -197 7236 -226 ct 7312 -270 l  7346 -290 7370 -307 7384 -321 ct 
7406 -343 7417 -368 7417 -396 ct 7417 -429 7407 -455 7387 -475 ct 7367 -494 7341 -504 7308 -504 ct 
7259 -504 7225 -485 7206 -448 ct 7196 -428 7191 -401 7190 -366 ct 7117 -366 l 
7118 -415 7127 -456 7145 -487 ct 7175 -542 7230 -569 7308 -569 ct 7373 -569 7420 -551 7450 -516 ct 
7480 -481 7495 -442 7495 -399 ct 7495 -354 7479 -315 7447 -283 ct 7429 -264 7396 -241 7348 -215 ct 
7294 -185 l  7268 -170 7248 -157 7233 -144 ct 7206 -121 7190 -95 7183 -67 ct 
7493 -67 l  7493 0 l  7103 0 l  7106 -49 7116 -91 7134 -128 ct p ef
7629 -145 m  7634 -104 7653 -76 7686 -60 ct 7703 -52 7722 -48 7744 -48 ct 7787 -48 7818 -62 7838 -89 ct 
7859 -116 7869 -145 7869 -178 ct 7869 -218 7857 -248 7833 -270 ct 7808 -292 7779 -303 7746 -303 ct 
7721 -303 7700 -298 7682 -288 ct 7665 -279 7650 -266 7638 -249 ct 7576 -252 l 
7619 -558 l  7914 -558 l  7914 -489 l  7672 -489 l  7648 -331 l  7661 -341 7674 -349 7686 -354 ct 
7707 -362 7731 -367 7759 -367 ct 7811 -367 7855 -350 7891 -316 ct 7928 -283 7946 -240 7946 -189 ct 
7946 -135 7929 -88 7896 -47 ct 7863 -6 7810 14 7737 14 ct 7691 14 7650 1 7615 -25 ct 
7579 -51 7559 -91 7555 -145 ct p ef
8359 -476 m  8384 -430 8397 -366 8397 -284 ct 8397 -207 8385 -143 8362 -93 ct 
8329 -21 8274 15 8199 15 ct 8131 15 8080 -14 8047 -73 ct 8019 -123 8005 -189 8005 -272 ct 
8005 -336 8014 -392 8030 -438 ct 8061 -524 8118 -567 8199 -567 ct 8273 -567 8326 -537 8359 -476 ct 
p
8287 -99 m  8309 -131 8320 -192 8320 -282 ct 8320 -346 8312 -399 8296 -441 ct 
8280 -482 8249 -503 8204 -503 ct 8162 -503 8131 -483 8112 -444 ct 8092 -404 8083 -346 8083 -269 ct 
8083 -211 8089 -165 8101 -130 ct 8120 -76 8153 -49 8199 -49 ct 8236 -49 8265 -66 8287 -99 ct 
p ef
8707 -582 m  8775 -582 l  8775 -244 l  8958 -424 l  9049 -424 l  8887 -265 l 
9058 0 l  8967 0 l  8835 -214 l  8775 -159 l  8775 0 l  8707 0 l  p ef
9126 -582 m  9205 -582 l  9205 -341 l  9508 -341 l  9508 -582 l  9587 -582 l 
9587 0 l  9508 0 l  9508 -272 l  9205 -272 l  9205 0 l  9126 0 l  p ef
9669 -56 m  9920 -360 l  9687 -360 l  9687 -424 l  10016 -424 l  10016 -366 l 
9766 -64 l  10023 -64 l  10023 0 l  9669 0 l  p ef
44 -575 m  53 -575 l  54 -568 l  54 -208 l  66 -208 l  67 -202 l  67 -145 l 
66 -139 l  54 -139 l  54 -6 l  53 0 l  42 0 l  41 -6 l  41 -139 l  3 -139 l 
2 -145 l  2 -208 l  3 -221 l  39 -531 l  42 -562 l  p
40 -442 m  14 -208 l  41 -208 l  41 -448 l  p ef
480 -568 m  495 -568 l  504 -543 l  511 -499 l  515 -442 l  519 -322 l 
519 -246 l  517 -158 l  514 -101 l  512 -76 l  510 -57 l  503 -13 l  500 0 l 
498 0 l  495 6 l  494 13 l  480 13 l  477 6 l  471 -13 l  465 -50 l  461 -101 l 
456 -215 l  456 -335 l  457 -379 l  459 -429 l  463 -486 l  466 -512 l 
471 -543 l  p
479 -486 m  475 -461 l  472 -423 l  471 -404 l  469 -322 l  469 -227 l 
473 -126 l  475 -95 l  479 -69 l  480 -69 l  482 -63 l  483 -57 l  491 -57 l 
494 -63 l  497 -76 l  500 -95 l  502 -114 l  505 -183 l  506 -253 l  506 -303 l 
505 -373 l  503 -429 l  500 -467 l  497 -486 l  496 -486 l  494 -493 l 
493 -499 l  483 -499 l  p ef
937 -575 m  940 -575 l  948 -568 l  950 -562 l  955 -549 l  957 -549 l 
959 -537 l  964 -512 l  966 -474 l  967 -455 l  967 -385 l  964 -335 l 
960 -316 l  959 -316 l  957 -310 l  957 -303 l  957 -303 l  961 -291 l 
964 -278 l  965 -272 l  968 -246 l  969 -234 l  970 -215 l  971 -177 l 
971 -164 l  970 -120 l  967 -76 l  965 -57 l  960 -25 l  957 -13 l  951 6 l 
946 13 l  929 13 l  919 -13 l  914 -50 l  912 -69 l  909 -95 l  909 -114 l 
908 -145 l  908 -171 l  909 -177 l  919 -177 l  921 -171 l  923 -114 l 
923 -95 l  926 -76 l  929 -63 l  933 -57 l  944 -57 l  947 -63 l  951 -76 l 
955 -101 l  957 -126 l  957 -196 l  957 -215 l  953 -240 l  946 -259 l 
933 -259 l  932 -272 l  932 -322 l  933 -329 l  943 -329 l  950 -347 l 
953 -360 l  953 -366 l  953 -379 l  954 -385 l  954 -448 l  953 -461 l 
950 -486 l  947 -493 l  944 -499 l  933 -499 l  930 -493 l  927 -480 l 
926 -467 l  923 -436 l  923 -391 l  921 -379 l  911 -379 l  909 -385 l 
909 -404 l  912 -467 l  918 -524 l  919 -531 l  923 -549 l  925 -556 l 
930 -568 l  p ef
1389 -575 m  1398 -575 l  1411 -549 l  1414 -537 l  1418 -512 l  1420 -493 l 
1424 -423 l  1424 -379 l  1422 -335 l  1421 -322 l  1419 -303 l  1412 -259 l 
1394 -189 l  1390 -177 l  1389 -177 l  1382 -145 l  1379 -126 l  1377 -107 l 
1375 -82 l  1375 -76 l  1422 -76 l  1423 -69 l  1423 -6 l  1422 0 l  1362 0 l 
1361 -6 l  1361 -31 l  1362 -69 l  1364 -107 l  1367 -145 l  1369 -164 l 
1374 -196 l  1384 -240 l  1398 -291 l  1399 -291 l  1402 -303 l  1408 -341 l 
1410 -366 l  1410 -436 l  1409 -442 l  1408 -455 l  1408 -461 l  1404 -486 l 
1403 -486 l  1401 -493 l  1400 -499 l  1388 -499 l  1385 -493 l  1383 -486 l 
1379 -461 l  1377 -436 l  1376 -417 l  1376 -373 l  1375 -366 l  1364 -366 l 
1363 -373 l  1363 -398 l  1367 -486 l  1369 -505 l  1375 -543 l  1381 -562 l 
1384 -568 l  p ef
2292 -442 m  2297 -442 l  2304 -436 l  2311 -417 l  2319 -366 l  2319 -360 l 
2320 -341 l  2321 -335 l  2321 -310 l  2320 -303 l  2310 -303 l  2309 -310 l 
2309 -329 l  2307 -347 l  2305 -360 l  2303 -360 l  2300 -366 l  2299 -373 l 
2289 -373 l  2285 -360 l  2282 -341 l  2282 -297 l  2285 -278 l  2287 -272 l 
2314 -221 l  2319 -202 l  2320 -196 l  2322 -177 l  2323 -158 l  2323 -95 l 
2322 -76 l  2320 -50 l  2314 -13 l  2308 6 l  2304 13 l  2296 19 l  2295 19 l 
2278 -6 l  2271 -50 l  2269 -76 l  2267 -120 l  2267 -133 l  2268 -139 l 
2278 -139 l  2279 -133 l  2281 -95 l  2281 -88 l  2285 -63 l  2286 -63 l 
2290 -57 l  2291 -50 l  2300 -50 l  2304 -57 l  2308 -69 l  2310 -82 l 
2311 -95 l  2311 -133 l  2310 -145 l  2308 -158 l  2282 -202 l  2276 -221 l 
2271 -253 l  2271 -259 l  2270 -278 l  2269 -284 l  2269 -329 l  2270 -347 l 
2272 -373 l  2279 -417 l  p ef
2750 -442 m  2752 -442 l  2761 -436 l  2771 -404 l  2774 -385 l  2774 -379 l 
2777 -354 l  2778 -347 l  2778 -69 l  2778 -57 l  2784 -57 l  2785 -50 l 
2785 0 l  2784 6 l  2773 6 l  2771 0 l  2768 -19 l  2767 -31 l  2767 -50 l 
2766 -50 l  2762 -25 l  2759 -13 l  2749 13 l  2737 13 l  2734 6 l  2730 -6 l 
2724 -44 l  2722 -69 l  2721 -95 l  2721 -139 l  2723 -171 l  2726 -202 l 
2727 -208 l  2731 -227 l  2733 -234 l  2739 -246 l  2753 -259 l  2760 -259 l 
2763 -265 l  2766 -284 l  2766 -329 l  2764 -341 l  2762 -360 l  2760 -366 l 
2756 -373 l  2746 -373 l  2745 -366 l  2742 -360 l  2741 -360 l  2738 -341 l 
2737 -329 l  2736 -310 l  2736 -297 l  2735 -291 l  2726 -291 l  2725 -297 l 
2725 -335 l  2728 -379 l  2733 -410 l  2739 -429 l  2743 -436 l  p
2742 -183 m  2738 -171 l  2735 -152 l  2734 -139 l  2734 -95 l  2735 -82 l 
2737 -69 l  2740 -57 l  2745 -50 l  2746 -50 l  2752 -57 l  2755 -63 l 
2759 -76 l  2764 -107 l  2764 -120 l  2764 -145 l  2766 -152 l  2766 -215 l 
p ef
3202 -436 m  3214 -436 l  3215 -429 l  3218 -423 l  3219 -423 l  3225 -385 l 
3225 -379 l  3226 -373 l  3227 -379 l  3227 -385 l  3230 -404 l  3234 -423 l 
3240 -436 l  3252 -436 l  3259 -417 l  3263 -391 l  3265 -373 l  3266 -360 l 
3267 -335 l  3267 -6 l  3266 0 l  3256 0 l  3255 -6 l  3255 -303 l  3254 -335 l 
3250 -360 l  3248 -366 l  3239 -366 l  3235 -354 l  3230 -322 l  3230 -316 l 
3229 -291 l  3228 -284 l  3228 -6 l  3227 0 l  3216 0 l  3215 -6 l  3215 -227 l 
3216 -234 l  3216 -272 l  3215 -329 l  3214 -341 l  3211 -360 l  3209 -366 l 
3201 -366 l  3198 -360 l  3196 -354 l  3192 -329 l  3190 -303 l  3189 -284 l 
3189 -6 l  3188 0 l  3177 0 l  3176 -6 l  3176 -423 l  3177 -429 l  3187 -429 l 
3188 -423 l  3188 -373 l  3194 -410 l  3197 -423 l  3199 -429 l  p ef
3660 -442 m  3661 -442 l  3674 -417 l  3678 -398 l  3681 -379 l  3684 -354 l 
3685 -341 l  3688 -278 l  3688 -158 l  3683 -69 l  3679 -38 l  3676 -19 l 
3673 -6 l  3669 6 l  3665 13 l  3653 13 l  3649 0 l  3641 -38 l  3641 158 l 
3639 171 l  3630 171 l  3628 158 l  3628 -417 l  3630 -429 l  3639 -429 l 
3640 -423 l  3640 -373 l  3647 -417 l  p
3652 -366 m  3648 -354 l  3645 -335 l  3641 -278 l  3640 -234 l  3640 -177 l 
3641 -139 l  3642 -120 l  3644 -95 l  3648 -69 l  3652 -57 l  3663 -57 l 
3664 -63 l  3666 -69 l  3667 -69 l  3671 -95 l  3673 -114 l  3675 -145 l 
3676 -183 l  3676 -240 l  3672 -322 l  3671 -335 l  3668 -354 l  3667 -354 l 
3665 -360 l  3664 -366 l  3659 -373 l  3657 -373 l  p ef
4084 -587 m  4094 -587 l  4095 -581 l  4095 -6 l  4094 0 l  4084 0 l  4083 -6 l 
4083 -581 l  p ef
4556 -436 m  4570 -436 l  4575 -423 l  4584 -391 l  4589 -354 l  4592 -291 l 
4594 -227 l  4594 -196 l  4593 -189 l  4545 -189 l  4545 -152 l  4549 -88 l 
4552 -69 l  4556 -57 l  4562 -50 l  4564 -50 l  4569 -57 l  4576 -82 l 
4577 -88 l  4579 -107 l  4580 -120 l  4580 -133 l  4581 -139 l  4592 -139 l 
4593 -133 l  4591 -95 l  4590 -82 l  4588 -63 l  4580 -13 l  4570 13 l 
4555 13 l  4552 6 l  4546 -13 l  4540 -44 l  4537 -69 l  4533 -120 l  4532 -152 l 
4532 -265 l  4536 -335 l  4538 -347 l  4540 -366 l  4540 -373 l  4542 -385 l 
4547 -410 l  4553 -429 l  p
4557 -366 m  4553 -354 l  4548 -322 l  4545 -272 l  4545 -253 l  4581 -253 l 
4581 -265 l  4579 -310 l  4578 -322 l  4576 -341 l  4575 -347 l  4564 -373 l 
4562 -373 l  p ef
5008 -442 m  5013 -442 l  5020 -436 l  5027 -417 l  5035 -366 l  5035 -360 l 
5036 -341 l  5037 -335 l  5037 -310 l  5036 -303 l  5026 -303 l  5025 -310 l 
5025 -329 l  5023 -347 l  5021 -360 l  5019 -360 l  5016 -366 l  5015 -373 l 
5005 -373 l  5001 -360 l  4998 -341 l  4998 -297 l  5001 -278 l  5003 -272 l 
5030 -221 l  5035 -202 l  5036 -196 l  5038 -177 l  5039 -158 l  5039 -95 l 
5038 -76 l  5036 -50 l  5030 -13 l  5024 6 l  5020 13 l  5012 19 l  5011 19 l 
4994 -6 l  4987 -50 l  4985 -76 l  4983 -120 l  4983 -133 l  4984 -139 l 
4994 -139 l  4995 -133 l  4997 -95 l  4997 -88 l  5001 -63 l  5002 -63 l 
5006 -57 l  5007 -50 l  5016 -50 l  5020 -57 l  5024 -69 l  5026 -82 l 
5027 -95 l  5027 -133 l  5026 -145 l  5024 -158 l  4998 -202 l  4992 -221 l 
4987 -253 l  4987 -259 l  4986 -278 l  4985 -284 l  4985 -329 l  4986 -347 l 
4988 -373 l  4995 -417 l  p ef
5444 -95 m  5456 -95 l  5457 -88 l  5457 19 l  5454 76 l  5449 107 l  5447 114 l 
5444 120 l  5443 114 l  5443 82 l  5445 69 l  5446 69 l  5448 57 l  5448 44 l 
5449 19 l  5450 13 l  5450 0 l  5444 0 l  5443 -6 l  5443 -88 l  p ef
6375 -568 m  6383 -568 l  6384 -562 l  6384 -6 l  6383 0 l  6372 0 l  6371 -6 l 
6371 -398 l  6352 -398 l  6350 -410 l  6350 -455 l  6351 -461 l  6365 -480 l 
6368 -486 l  6371 -505 l  6373 -531 l  6374 -549 l  6374 -562 l  p ef
6805 -562 m  6851 -562 l  6852 -556 l  6852 -493 l  6851 -486 l  6814 -486 l 
6813 -480 l  6810 -360 l  6810 -341 l  6811 -341 l  6813 -354 l  6815 -360 l 
6818 -366 l  6823 -373 l  6831 -373 l  6844 -341 l  6848 -322 l  6853 -284 l 
6857 -208 l  6857 -177 l  6855 -114 l  6852 -76 l  6850 -57 l  6844 -19 l 
6831 13 l  6817 13 l  6813 6 l  6808 -6 l  6805 -19 l  6798 -63 l  6796 -88 l 
6794 -133 l  6794 -145 l  6795 -152 l  6806 -152 l  6807 -145 l  6809 -107 l 
6809 -101 l  6814 -69 l  6816 -63 l  6819 -57 l  6830 -57 l  6831 -63 l 
6834 -69 l  6835 -69 l  6840 -101 l  6843 -139 l  6844 -177 l  6844 -189 l 
6841 -253 l  6837 -278 l  6834 -291 l  6827 -303 l  6823 -303 l  6817 -291 l 
6807 -246 l  6804 -246 l  6798 -253 l  6797 -259 l  6798 -265 l  6804 -531 l 
6804 -556 l  p ef
7276 -575 m  7286 -575 l  7298 -549 l  7303 -518 l  7305 -499 l  7308 -455 l 
7308 -423 l  7307 -417 l  7297 -417 l  7296 -423 l  7296 -429 l  7295 -448 l 
7293 -474 l  7290 -493 l  7289 -493 l  7286 -499 l  7285 -505 l  7278 -505 l 
7275 -499 l  7271 -486 l  7268 -467 l  7266 -448 l  7264 -423 l  7262 -385 l 
7261 -354 l  7261 -310 l  7265 -335 l  7268 -347 l  7272 -360 l  7275 -366 l 
7288 -366 l  7298 -341 l  7306 -291 l  7310 -227 l  7310 -145 l  7309 -120 l 
7305 -69 l  7303 -50 l  7300 -31 l  7296 -13 l  7290 6 l  7286 13 l  7273 13 l 
7272 6 l  7266 -6 l  7265 -6 l  7262 -19 l  7254 -69 l  7251 -107 l  7248 -183 l 
7248 -329 l  7254 -467 l  7257 -499 l  7264 -543 l  7272 -568 l  p
7275 -291 m  7272 -284 l  7270 -284 l  7264 -246 l  7264 -240 l  7263 -215 l 
7262 -208 l  7262 -145 l  7263 -126 l  7265 -101 l  7270 -69 l  7271 -69 l 
7274 -63 l  7275 -57 l  7285 -57 l  7288 -63 l  7290 -69 l  7293 -88 l 
7295 -107 l  7296 -120 l  7297 -139 l  7297 -215 l  7294 -259 l  7291 -278 l 
7288 -291 l  7284 -297 l  7276 -297 l  p ef
7708 -95 m  7720 -95 l  7721 -88 l  7721 -6 l  7720 0 l  7708 0 l  7707 -6 l 
7707 -88 l  p ef
8181 -575 m  8190 -575 l  8203 -549 l  8206 -537 l  8210 -512 l  8212 -493 l 
8216 -423 l  8216 -379 l  8214 -335 l  8213 -322 l  8211 -303 l  8204 -259 l 
8186 -189 l  8182 -177 l  8181 -177 l  8174 -145 l  8171 -126 l  8169 -107 l 
8167 -82 l  8167 -76 l  8214 -76 l  8215 -69 l  8215 -6 l  8214 0 l  8154 0 l 
8153 -6 l  8153 -31 l  8154 -69 l  8156 -107 l  8159 -145 l  8161 -164 l 
8166 -196 l  8176 -240 l  8190 -291 l  8191 -291 l  8194 -303 l  8200 -341 l 
8202 -366 l  8202 -436 l  8201 -442 l  8200 -455 l  8200 -461 l  8196 -486 l 
8195 -486 l  8193 -493 l  8192 -499 l  8180 -499 l  8177 -493 l  8175 -486 l 
8171 -461 l  8169 -436 l  8168 -417 l  8168 -373 l  8167 -366 l  8156 -366 l 
8155 -373 l  8155 -398 l  8159 -486 l  8161 -505 l  8167 -543 l  8173 -562 l 
8176 -568 l  p ef
8616 -562 m  8662 -562 l  8663 -556 l  8663 -493 l  8662 -486 l  8625 -486 l 
8624 -480 l  8621 -360 l  8621 -341 l  8622 -341 l  8624 -354 l  8626 -360 l 
8629 -366 l  8634 -373 l  8642 -373 l  8655 -341 l  8659 -322 l  8664 -284 l 
8668 -208 l  8668 -177 l  8666 -114 l  8663 -76 l  8661 -57 l  8655 -19 l 
8642 13 l  8628 13 l  8624 6 l  8619 -6 l  8616 -19 l  8609 -63 l  8607 -88 l 
8605 -133 l  8605 -145 l  8606 -152 l  8617 -152 l  8618 -145 l  8620 -107 l 
8620 -101 l  8625 -69 l  8627 -63 l  8630 -57 l  8641 -57 l  8642 -63 l 
8645 -69 l  8646 -69 l  8651 -101 l  8654 -139 l  8655 -177 l  8655 -189 l 
8652 -253 l  8648 -278 l  8645 -291 l  8638 -303 l  8634 -303 l  8628 -291 l 
8618 -246 l  8615 -246 l  8609 -253 l  8608 -259 l  8609 -265 l  8615 -531 l 
8615 -556 l  p ef
9082 -568 m  9097 -568 l  9106 -543 l  9113 -499 l  9117 -442 l  9121 -322 l 
9121 -246 l  9119 -158 l  9116 -101 l  9114 -76 l  9112 -57 l  9105 -13 l 
9102 0 l  9100 0 l  9097 6 l  9096 13 l  9082 13 l  9079 6 l  9073 -13 l 
9067 -50 l  9063 -101 l  9058 -215 l  9058 -335 l  9059 -379 l  9061 -429 l 
9065 -486 l  9068 -512 l  9073 -543 l  p
9081 -486 m  9077 -461 l  9074 -423 l  9073 -404 l  9071 -322 l  9071 -227 l 
9075 -126 l  9077 -95 l  9081 -69 l  9082 -69 l  9084 -63 l  9085 -57 l 
9093 -57 l  9096 -63 l  9099 -76 l  9102 -95 l  9104 -114 l  9107 -183 l 
9108 -253 l  9108 -303 l  9107 -373 l  9105 -429 l  9102 -467 l  9099 -486 l 
9098 -486 l  9096 -493 l  9095 -499 l  9085 -499 l  p ef
9969 -587 m  9979 -587 l  9980 -581 l  9980 -253 l  10008 -429 l  10022 -429 l 
10023 -423 l  10018 -391 l  10017 -391 l  9998 -272 l  9998 -259 l  10000 -246 l 
10002 -227 l  10003 -215 l  10013 -114 l  10014 -101 l  10016 -82 l  10018 -69 l 
10024 -13 l  10024 -6 l  10023 0 l  10010 0 l  10008 -13 l  10004 -50 l 
10004 -57 l  10003 -69 l  9990 -196 l  9990 -202 l  9989 -208 l  9988 -208 l 
9983 -177 l  9982 -177 l  9980 -164 l  9980 -6 l  9979 0 l  9969 0 l  9968 -6 l 
9968 -581 l  p ef
10423 -587 m  10435 -587 l  10436 -581 l  10436 -347 l  10482 -347 l  10482 -581 l 
10483 -587 l  10495 -587 l  10496 -581 l  10496 -6 l  10495 0 l  10483 0 l 
10482 -6 l  10482 -272 l  10436 -272 l  10436 -6 l  10435 0 l  10423 0 l 
10422 -6 l  10422 -581 l  p ef
10872 -429 m  10923 -429 l  10924 -423 l  10924 -366 l  10921 -341 l  10916 -310 l 
10906 -234 l  10906 -227 l  10902 -196 l  10897 -164 l  10887 -88 l  10885 -69 l 
10924 -69 l  10925 -63 l  10925 -6 l  10924 0 l  10869 0 l  10868 -6 l 
10868 -57 l  10870 -76 l  10880 -152 l  10884 -177 l  10889 -215 l  10889 -221 l 
10899 -297 l  10903 -322 l  10908 -360 l  10872 -360 l  10871 -366 l  10871 -423 l 
p ef
pom
pum
8616 1129 t
74 -384 m  74 -437 l  124 -441 158 -449 177 -461 ct 197 -472 211 -498 221 -540 ct 
275 -540 l  275 0 l  202 0 l  202 -384 l  p ef
793 -456 m  817 -411 830 -350 830 -272 ct 830 -198 819 -137 797 -89 ct 765 -20 713 15 641 15 ct 
575 15 527 -14 495 -70 ct 469 -117 455 -181 455 -260 ct 455 -322 463 -375 479 -419 ct 
509 -501 563 -543 641 -543 ct 711 -543 762 -514 793 -456 ct p
725 -94 m  746 -126 756 -184 756 -269 ct 756 -331 749 -382 733 -422 ct 718 -461 689 -481 645 -481 ct 
605 -481 576 -462 557 -425 ct 538 -387 529 -331 529 -258 ct 529 -202 535 -158 547 -124 ct 
565 -73 596 -47 640 -47 ct 676 -47 704 -63 725 -94 ct p ef
916 -122 m  933 -157 966 -188 1015 -216 ct 1087 -258 l  1120 -277 1143 -294 1156 -307 ct 
1177 -328 1187 -352 1187 -379 ct 1187 -410 1177 -436 1159 -454 ct 1140 -473 1114 -482 1083 -482 ct 
1036 -482 1004 -464 986 -429 ct 976 -410 971 -384 970 -350 ct 901 -350 l  901 -397 910 -436 927 -466 ct 
956 -518 1008 -544 1083 -544 ct 1145 -544 1191 -528 1219 -494 ct 1248 -460 1262 -423 1262 -382 ct 
1262 -338 1247 -301 1217 -271 ct 1199 -253 1167 -231 1121 -205 ct 1070 -177 l 
1045 -163 1025 -150 1011 -138 ct 986 -116 970 -91 963 -64 ct 1260 -64 l  1260 0 l 
887 0 l  890 -47 899 -87 916 -122 ct p ef
1551 -192 m  1551 -438 l  1377 -192 l  p
1552 0 m  1552 -133 l  1314 -133 l  1314 -199 l  1562 -544 l  1620 -544 l 
1620 -192 l  1700 -192 l  1700 -133 l  1620 -133 l  1620 0 l  p ef
2032 -127 m  2034 -105 2039 -87 2049 -75 ct 2066 -53 2096 -42 2138 -42 ct 2163 -42 2186 -48 2205 -59 ct 
2224 -70 2234 -87 2234 -110 ct 2234 -127 2226 -140 2210 -149 ct 2201 -155 2181 -161 2152 -169 ct 
2098 -182 l  2063 -191 2038 -200 2021 -211 ct 1992 -229 1977 -255 1977 -288 ct 
1977 -326 1991 -357 2019 -381 ct 2047 -405 2084 -416 2130 -416 ct 2192 -416 2236 -398 2263 -363 ct 
2280 -340 2288 -315 2287 -289 ct 2223 -289 l  2222 -305 2216 -319 2207 -331 ct 
2191 -349 2164 -358 2125 -358 ct 2099 -358 2080 -353 2067 -343 ct 2053 -333 2047 -320 2047 -304 ct 
2047 -287 2055 -272 2073 -262 ct 2083 -256 2098 -250 2118 -245 ct 2163 -234 l 
2212 -222 2245 -211 2261 -200 ct 2288 -182 2301 -155 2301 -117 ct 2301 -81 2287 -50 2260 -24 ct 
2232 2 2191 16 2135 16 ct 2074 16 2031 2 2006 -26 ct 1981 -53 1968 -87 1966 -127 ct 
p ef
2453 -61 m  2467 -50 2484 -44 2504 -44 ct 2528 -44 2551 -50 2574 -61 ct 2612 -79 2631 -110 2631 -152 ct 
2631 -207 l  2622 -201 2612 -197 2598 -193 ct 2585 -190 2572 -187 2560 -186 ct 
2518 -180 l  2494 -177 2475 -172 2463 -165 ct 2442 -153 2431 -134 2431 -108 ct 
2431 -88 2439 -73 2453 -61 ct p
2597 -246 m  2612 -248 2623 -254 2628 -266 ct 2631 -272 2633 -280 2633 -292 ct 
2633 -315 2624 -332 2608 -342 ct 2591 -353 2567 -358 2537 -358 ct 2501 -358 2476 -348 2461 -329 ct 
2453 -319 2447 -303 2445 -282 ct 2381 -282 l  2382 -332 2398 -367 2430 -386 ct 
2461 -406 2497 -416 2538 -416 ct 2586 -416 2625 -407 2654 -388 ct 2684 -370 2699 -342 2699 -304 ct 
2699 -70 l  2699 -63 2700 -57 2703 -53 ct 2706 -48 2712 -46 2722 -46 ct 2725 -46 2728 -46 2732 -47 ct 
2736 -47 2740 -48 2744 -49 ct 2744 2 l  2733 5 2725 7 2720 8 ct 2714 8 2707 9 2697 9 ct 
2673 9 2656 0 2646 -16 ct 2640 -25 2636 -38 2634 -54 ct 2620 -36 2600 -20 2574 -6 ct 
2548 7 2519 14 2488 14 ct 2451 14 2420 2 2396 -21 ct 2372 -44 2360 -72 2360 -106 ct 
2360 -144 2372 -173 2395 -194 ct 2419 -215 2450 -227 2488 -232 ct p ef
2811 -406 m  2878 -406 l  2878 -348 l  2895 -368 2909 -383 2922 -392 ct 2945 -407 2970 -415 2999 -415 ct 
3031 -415 3057 -407 3077 -391 ct 3088 -382 3098 -369 3107 -351 ct 3122 -373 3140 -389 3161 -399 ct 
3181 -410 3204 -415 3230 -415 ct 3284 -415 3321 -395 3341 -356 ct 3352 -335 3357 -306 3357 -270 ct 
3357 0 l  3286 0 l  3286 -282 l  3286 -309 3279 -328 3266 -338 ct 3252 -348 3236 -353 3216 -353 ct 
3190 -353 3167 -344 3147 -326 ct 3128 -308 3118 -278 3118 -236 ct 3118 0 l  3049 0 l 
3049 -265 l  3049 -292 3046 -312 3039 -325 ct 3029 -344 3009 -354 2981 -354 ct 
2955 -354 2932 -344 2911 -324 ct 2890 -304 2879 -268 2879 -215 ct 2879 0 l  2811 0 l 
p ef
3708 -86 m  3729 -112 3739 -152 3739 -205 ct 3739 -238 3735 -265 3725 -289 ct 
3708 -333 3675 -356 3628 -356 ct 3581 -356 3549 -332 3531 -285 ct 3522 -260 3517 -228 3517 -189 ct 
3517 -157 3522 -131 3531 -109 ct 3549 -67 3581 -46 3628 -46 ct 3660 -46 3687 -59 3708 -86 ct 
p
3452 -404 m  3518 -404 l  3518 -350 l  3532 -369 3547 -383 3563 -393 ct 3586 -408 3613 -416 3644 -416 ct 
3690 -416 3729 -398 3761 -363 ct 3793 -328 3809 -277 3809 -212 ct 3809 -123 3786 -60 3740 -22 ct 
3710 2 3676 14 3637 14 ct 3607 14 3581 7 3560 -6 ct 3548 -14 3535 -27 3520 -45 ct 
3520 162 l  3452 162 l  p ef
3891 -557 m  3959 -557 l  3959 0 l  3891 0 l  p ef
4314 -395 m  4341 -381 4361 -364 4376 -342 ct 4389 -322 4398 -298 4403 -271 ct 
4407 -252 4409 -222 4409 -181 ct 4111 -181 l  4113 -140 4122 -107 4141 -82 ct 
4159 -57 4187 -45 4225 -45 ct 4261 -45 4289 -56 4310 -80 ct 4322 -94 4331 -109 4336 -127 ct 
4403 -127 l  4401 -112 4396 -96 4386 -77 ct 4376 -59 4364 -44 4352 -33 ct 4331 -12 4306 1 4275 8 ct 
4259 12 4240 14 4219 14 ct 4169 14 4126 -4 4091 -41 ct 4056 -77 4038 -129 4038 -195 ct 
4038 -260 4056 -313 4091 -354 ct 4127 -395 4173 -415 4230 -415 ct 4259 -415 4287 -408 4314 -395 ct 
p
4339 -235 m  4336 -265 4330 -288 4319 -306 ct 4301 -339 4270 -355 4226 -355 ct 
4195 -355 4168 -344 4147 -322 ct 4126 -299 4115 -270 4113 -235 ct p ef
4534 -127 m  4536 -105 4541 -87 4551 -75 ct 4568 -53 4598 -42 4640 -42 ct 4665 -42 4688 -48 4707 -59 ct 
4726 -70 4736 -87 4736 -110 ct 4736 -127 4728 -140 4712 -149 ct 4703 -155 4683 -161 4654 -169 ct 
4600 -182 l  4565 -191 4540 -200 4523 -211 ct 4494 -229 4479 -255 4479 -288 ct 
4479 -326 4493 -357 4521 -381 ct 4549 -405 4586 -416 4632 -416 ct 4694 -416 4738 -398 4765 -363 ct 
4782 -340 4790 -315 4789 -289 ct 4725 -289 l  4724 -305 4718 -319 4709 -331 ct 
4693 -349 4666 -358 4627 -358 ct 4601 -358 4582 -353 4569 -343 ct 4555 -333 4549 -320 4549 -304 ct 
4549 -287 4557 -272 4575 -262 ct 4585 -256 4600 -250 4620 -245 ct 4665 -234 l 
4714 -222 4747 -211 4763 -200 ct 4790 -182 4803 -155 4803 -117 ct 4803 -81 4789 -50 4762 -24 ct 
4734 2 4693 16 4637 16 ct 4576 16 4533 2 4508 -26 ct 4483 -53 4470 -87 4468 -127 ct 
p ef
4895 79 m  4913 76 4925 64 4932 42 ct 4936 31 4938 20 4938 9 ct 4938 8 4938 6 4938 5 ct 
4938 3 4937 2 4937 0 ct 4895 0 l  4895 -83 l  4977 -83 l  4977 -6 l  4977 24 4970 50 4958 73 ct 
4946 96 4925 110 4895 115 ct p ef
5315 -122 m  5332 -157 5365 -188 5414 -216 ct 5486 -258 l  5519 -277 5542 -294 5555 -307 ct 
5576 -328 5586 -352 5586 -379 ct 5586 -410 5576 -436 5558 -454 ct 5539 -473 5513 -482 5482 -482 ct 
5435 -482 5403 -464 5385 -429 ct 5375 -410 5370 -384 5369 -350 ct 5300 -350 l 
5300 -397 5309 -436 5326 -466 ct 5355 -518 5407 -544 5482 -544 ct 5544 -544 5590 -528 5618 -494 ct 
5647 -460 5661 -423 5661 -382 ct 5661 -338 5646 -301 5616 -271 ct 5598 -253 5566 -231 5520 -205 ct 
5469 -177 l  5444 -163 5424 -150 5410 -138 ct 5385 -116 5369 -91 5362 -64 ct 
5659 -64 l  5659 0 l  5286 0 l  5289 -47 5298 -87 5315 -122 ct p ef
5760 -83 m  5840 -83 l  5840 0 l  5760 0 l  p ef
6005 -138 m  6009 -99 6027 -72 6059 -58 ct 6075 -50 6094 -46 6115 -46 ct 6156 -46 6185 -59 6205 -85 ct 
6224 -111 6234 -139 6234 -171 ct 6234 -208 6223 -238 6199 -258 ct 6176 -279 6149 -289 6116 -289 ct 
6093 -289 6073 -285 6056 -276 ct 6039 -267 6025 -254 6013 -238 ct 5954 -241 l 
5995 -534 l  6277 -534 l  6277 -468 l  6046 -468 l  6023 -317 l  6036 -326 6048 -334 6059 -338 ct 
6079 -347 6103 -351 6129 -351 ct 6179 -351 6221 -335 6256 -303 ct 6290 -271 6308 -230 6308 -181 ct 
6308 -129 6292 -84 6260 -45 ct 6228 -6 6178 14 6108 14 ct 6064 14 6025 1 5991 -24 ct 
5957 -49 5938 -87 5934 -138 ct p ef
6613 -557 m  6721 -557 l  6881 -86 l  7040 -557 l  7147 -557 l  7147 0 l 
7075 0 l  7075 -329 l  7075 -340 7075 -359 7076 -385 ct 7076 -411 7077 -439 7077 -469 ct 
6918 0 l  6843 0 l  6683 -469 l  6683 -452 l  6683 -439 6684 -418 6684 -390 ct 
6685 -362 6685 -342 6685 -329 ct 6685 0 l  6613 0 l  p ef
7264 -557 m  7340 -557 l  7340 -327 l  7630 -327 l  7630 -557 l  7706 -557 l 
7706 0 l  7630 0 l  7630 -260 l  7340 -260 l  7340 0 l  7264 0 l  p ef
7783 -54 m  8023 -345 l  7801 -345 l  7801 -406 l  8115 -406 l  8115 -350 l 
7876 -61 l  8122 -61 l  8122 0 l  7783 0 l  p ef
36 -537 m  44 -537 l  45 -531 l  45 -6 l  44 0 l  33 0 l  32 -6 l  32 -376 l 
13 -376 l  11 -388 l  11 -429 l  12 -435 l  26 -453 l  29 -459 l  32 -477 l 
34 -501 l  35 -519 l  35 -531 l  p ef
459 -537 m  474 -537 l  483 -513 l  490 -471 l  494 -418 l  498 -304 l 
498 -233 l  496 -149 l  493 -95 l  491 -71 l  489 -54 l  482 -12 l  479 0 l 
477 0 l  474 6 l  473 12 l  459 12 l  456 6 l  450 -12 l  444 -48 l  440 -95 l 
435 -203 l  435 -316 l  436 -358 l  438 -406 l  442 -459 l  445 -483 l 
450 -513 l  p
458 -459 m  454 -435 l  451 -400 l  450 -382 l  448 -304 l  448 -215 l 
452 -119 l  454 -89 l  458 -66 l  459 -66 l  461 -60 l  462 -54 l  470 -54 l 
473 -60 l  476 -71 l  479 -89 l  481 -107 l  484 -173 l  485 -239 l  485 -286 l 
484 -352 l  482 -406 l  479 -441 l  476 -459 l  475 -459 l  473 -465 l 
472 -471 l  462 -471 l  p ef
895 -543 m  904 -543 l  917 -519 l  920 -507 l  924 -483 l  926 -465 l 
930 -400 l  930 -358 l  928 -316 l  927 -304 l  925 -286 l  918 -245 l 
900 -179 l  896 -167 l  895 -167 l  888 -137 l  885 -119 l  883 -101 l 
881 -78 l  881 -71 l  928 -71 l  929 -66 l  929 -6 l  928 0 l  868 0 l 
867 -6 l  867 -30 l  868 -66 l  870 -101 l  873 -137 l  875 -155 l  880 -185 l 
890 -227 l  904 -274 l  905 -274 l  908 -286 l  914 -322 l  916 -346 l 
916 -411 l  915 -418 l  914 -429 l  914 -435 l  910 -459 l  909 -459 l 
907 -465 l  906 -471 l  894 -471 l  891 -465 l  889 -459 l  885 -435 l 
883 -411 l  882 -394 l  882 -352 l  881 -346 l  870 -346 l  869 -352 l 
869 -376 l  873 -459 l  875 -477 l  881 -513 l  887 -531 l  890 -537 l 
p ef
1340 -543 m  1349 -543 l  1350 -537 l  1350 -197 l  1362 -197 l  1363 -191 l 
1363 -137 l  1362 -131 l  1350 -131 l  1350 -6 l  1349 0 l  1338 0 l  1337 -6 l 
1337 -131 l  1299 -131 l  1298 -137 l  1298 -197 l  1299 -209 l  1335 -501 l 
1338 -531 l  p
1336 -418 m  1310 -197 l  1337 -197 l  1337 -424 l  p ef
2188 -418 m  2193 -418 l  2200 -411 l  2207 -394 l  2215 -346 l  2215 -340 l 
2216 -322 l  2217 -316 l  2217 -292 l  2216 -286 l  2206 -286 l  2205 -292 l 
2205 -310 l  2203 -328 l  2201 -340 l  2199 -340 l  2196 -346 l  2195 -352 l 
2185 -352 l  2181 -340 l  2178 -322 l  2178 -280 l  2181 -262 l  2183 -256 l 
2210 -209 l  2215 -191 l  2216 -185 l  2218 -167 l  2219 -149 l  2219 -89 l 
2218 -71 l  2216 -48 l  2210 -12 l  2204 6 l  2200 12 l  2192 18 l  2191 18 l 
2174 -6 l  2167 -48 l  2165 -71 l  2163 -113 l  2163 -125 l  2164 -131 l 
2174 -131 l  2175 -125 l  2177 -89 l  2177 -84 l  2181 -60 l  2182 -60 l 
2186 -54 l  2187 -48 l  2196 -48 l  2200 -54 l  2204 -66 l  2206 -78 l 
2207 -89 l  2207 -125 l  2206 -137 l  2204 -149 l  2178 -191 l  2172 -209 l 
2167 -239 l  2167 -245 l  2166 -262 l  2165 -269 l  2165 -310 l  2166 -328 l 
2168 -352 l  2175 -394 l  p ef
2626 -418 m  2628 -418 l  2637 -411 l  2648 -382 l  2651 -364 l  2651 -358 l 
2653 -334 l  2654 -328 l  2654 -66 l  2655 -54 l  2660 -54 l  2661 -48 l 
2661 0 l  2660 6 l  2649 6 l  2647 0 l  2644 -18 l  2643 -30 l  2643 -48 l 
2642 -48 l  2638 -24 l  2635 -12 l  2625 12 l  2613 12 l  2610 6 l  2606 -6 l 
2600 -42 l  2598 -66 l  2597 -89 l  2597 -131 l  2599 -161 l  2602 -191 l 
2603 -197 l  2607 -215 l  2609 -221 l  2615 -233 l  2629 -245 l  2636 -245 l 
2639 -251 l  2642 -269 l  2642 -310 l  2641 -322 l  2638 -340 l  2636 -346 l 
2632 -352 l  2622 -352 l  2621 -346 l  2618 -340 l  2617 -340 l  2614 -322 l 
2613 -310 l  2612 -292 l  2612 -280 l  2611 -274 l  2602 -274 l  2601 -280 l 
2601 -316 l  2604 -358 l  2609 -388 l  2615 -406 l  2619 -411 l  p
2618 -173 m  2614 -161 l  2611 -143 l  2610 -131 l  2610 -89 l  2611 -78 l 
2613 -66 l  2616 -54 l  2621 -48 l  2622 -48 l  2628 -54 l  2631 -60 l 
2635 -71 l  2640 -101 l  2640 -113 l  2641 -137 l  2642 -143 l  2642 -203 l 
p ef
3058 -411 m  3070 -411 l  3071 -406 l  3074 -400 l  3075 -400 l  3081 -364 l 
3081 -358 l  3082 -352 l  3083 -358 l  3083 -364 l  3086 -382 l  3090 -400 l 
3096 -411 l  3108 -411 l  3115 -394 l  3119 -370 l  3121 -352 l  3122 -340 l 
3123 -316 l  3123 -6 l  3122 0 l  3112 0 l  3111 -6 l  3111 -286 l  3110 -316 l 
3106 -340 l  3104 -346 l  3095 -346 l  3091 -334 l  3086 -304 l  3086 -298 l 
3085 -274 l  3084 -269 l  3084 -6 l  3083 0 l  3072 0 l  3071 -6 l  3071 -215 l 
3072 -221 l  3072 -256 l  3071 -310 l  3070 -322 l  3067 -340 l  3065 -346 l 
3057 -346 l  3054 -340 l  3052 -334 l  3048 -310 l  3046 -286 l  3045 -269 l 
3045 -6 l  3044 0 l  3033 0 l  3032 -6 l  3032 -400 l  3033 -406 l  3043 -406 l 
3044 -400 l  3044 -352 l  3050 -388 l  3053 -400 l  3055 -406 l  p ef
3495 -418 m  3496 -418 l  3509 -394 l  3513 -376 l  3516 -358 l  3519 -334 l 
3520 -322 l  3523 -262 l  3523 -149 l  3518 -66 l  3514 -36 l  3511 -18 l 
3508 -6 l  3504 6 l  3500 12 l  3488 12 l  3484 0 l  3476 -36 l  3476 149 l 
3474 161 l  3465 161 l  3463 149 l  3463 -394 l  3465 -406 l  3474 -406 l 
3475 -400 l  3475 -352 l  3482 -394 l  p
3487 -346 m  3483 -334 l  3480 -316 l  3476 -262 l  3475 -221 l  3475 -167 l 
3476 -131 l  3477 -113 l  3479 -89 l  3483 -66 l  3487 -54 l  3498 -54 l 
3499 -60 l  3501 -66 l  3502 -66 l  3506 -89 l  3508 -107 l  3510 -137 l 
3511 -173 l  3511 -227 l  3507 -304 l  3506 -316 l  3503 -334 l  3502 -334 l 
3500 -340 l  3499 -346 l  3494 -352 l  3492 -352 l  p ef
3898 -555 m  3908 -555 l  3909 -549 l  3909 -6 l  3908 0 l  3898 0 l  3897 -6 l 
3897 -549 l  p ef
4349 -411 m  4363 -411 l  4368 -400 l  4377 -370 l  4382 -334 l  4385 -274 l 
4387 -215 l  4387 -185 l  4386 -179 l  4338 -179 l  4338 -143 l  4342 -84 l 
4345 -66 l  4349 -54 l  4355 -48 l  4357 -48 l  4362 -54 l  4369 -78 l 
4370 -84 l  4372 -101 l  4373 -113 l  4373 -125 l  4374 -131 l  4385 -131 l 
4386 -125 l  4384 -89 l  4383 -78 l  4381 -60 l  4373 -12 l  4363 12 l 
4348 12 l  4345 6 l  4339 -12 l  4333 -42 l  4330 -66 l  4326 -113 l  4325 -143 l 
4325 -251 l  4329 -316 l  4331 -328 l  4333 -346 l  4333 -352 l  4335 -364 l 
4340 -388 l  4346 -406 l  p
4350 -346 m  4346 -334 l  4341 -304 l  4338 -256 l  4338 -239 l  4374 -239 l 
4374 -251 l  4372 -292 l  4371 -304 l  4369 -322 l  4368 -328 l  4357 -352 l 
4355 -352 l  p ef
4781 -418 m  4786 -418 l  4793 -411 l  4800 -394 l  4808 -346 l  4808 -340 l 
4809 -322 l  4810 -316 l  4810 -292 l  4809 -286 l  4799 -286 l  4798 -292 l 
4798 -310 l  4796 -328 l  4794 -340 l  4792 -340 l  4789 -346 l  4788 -352 l 
4778 -352 l  4774 -340 l  4771 -322 l  4771 -280 l  4774 -262 l  4776 -256 l 
4803 -209 l  4808 -191 l  4809 -185 l  4811 -167 l  4812 -149 l  4812 -89 l 
4811 -71 l  4809 -48 l  4803 -12 l  4797 6 l  4793 12 l  4785 18 l  4784 18 l 
4767 -6 l  4760 -48 l  4758 -71 l  4756 -113 l  4756 -125 l  4757 -131 l 
4767 -131 l  4768 -125 l  4770 -89 l  4770 -84 l  4774 -60 l  4775 -60 l 
4779 -54 l  4780 -48 l  4789 -48 l  4793 -54 l  4797 -66 l  4799 -78 l 
4800 -89 l  4800 -125 l  4799 -137 l  4797 -149 l  4771 -191 l  4765 -209 l 
4760 -239 l  4760 -245 l  4759 -262 l  4758 -269 l  4758 -310 l  4759 -328 l 
4761 -352 l  4768 -394 l  p ef
5196 -89 m  5208 -89 l  5209 -84 l  5209 18 l  5206 71 l  5201 101 l  5199 107 l 
5196 113 l  5195 107 l  5195 78 l  5197 66 l  5198 66 l  5200 54 l  5200 42 l 
5201 18 l  5202 12 l  5202 0 l  5196 0 l  5195 -6 l  5195 -84 l  p ef
6080 -543 m  6089 -543 l  6102 -519 l  6105 -507 l  6109 -483 l  6111 -465 l 
6115 -400 l  6115 -358 l  6113 -316 l  6112 -304 l  6110 -286 l  6103 -245 l 
6085 -179 l  6081 -167 l  6080 -167 l  6073 -137 l  6070 -119 l  6068 -101 l 
6066 -78 l  6066 -71 l  6113 -71 l  6114 -66 l  6114 -6 l  6113 0 l  6053 0 l 
6052 -6 l  6052 -30 l  6053 -66 l  6055 -101 l  6058 -137 l  6060 -155 l 
6065 -185 l  6075 -227 l  6089 -274 l  6090 -274 l  6093 -286 l  6099 -322 l 
6101 -346 l  6101 -411 l  6100 -418 l  6099 -429 l  6099 -435 l  6095 -459 l 
6094 -459 l  6092 -465 l  6091 -471 l  6079 -471 l  6076 -465 l  6074 -459 l 
6070 -435 l  6068 -411 l  6067 -394 l  6067 -352 l  6066 -346 l  6055 -346 l 
6054 -352 l  6054 -376 l  6058 -459 l  6060 -477 l  6066 -513 l  6072 -531 l 
6075 -537 l  p ef
6492 -89 m  6504 -89 l  6505 -84 l  6505 -6 l  6504 0 l  6492 0 l  6491 -6 l 
6491 -84 l  p ef
6927 -531 m  6973 -531 l  6974 -525 l  6974 -465 l  6973 -459 l  6936 -459 l 
6935 -453 l  6932 -340 l  6932 -322 l  6933 -322 l  6935 -334 l  6937 -340 l 
6940 -346 l  6945 -352 l  6953 -352 l  6966 -322 l  6970 -304 l  6976 -269 l 
6979 -197 l  6979 -167 l  6977 -107 l  6974 -71 l  6972 -54 l  6966 -18 l 
6953 12 l  6940 12 l  6935 6 l  6930 -6 l  6927 -18 l  6920 -60 l  6918 -84 l 
6916 -125 l  6916 -137 l  6917 -143 l  6928 -143 l  6929 -137 l  6931 -101 l 
6931 -95 l  6936 -66 l  6938 -60 l  6941 -54 l  6952 -54 l  6953 -60 l 
6956 -66 l  6958 -66 l  6962 -95 l  6965 -131 l  6966 -167 l  6966 -179 l 
6963 -239 l  6959 -262 l  6956 -274 l  6949 -286 l  6945 -286 l  6940 -274 l 
6929 -233 l  6926 -233 l  6920 -239 l  6919 -245 l  6920 -251 l  6926 -501 l 
6926 -525 l  p ef
7788 -555 m  7804 -555 l  7806 -543 l  7806 -531 l  7812 -424 l  7813 -411 l 
7830 -107 l  7831 -101 l  7832 -107 l  7856 -531 l  7856 -543 l  7858 -555 l 
7874 -555 l  7875 -549 l  7875 -6 l  7874 0 l  7864 0 l  7863 -6 l  7863 -441 l 
7862 -435 l  7862 -424 l  7861 -406 l  7860 -394 l  7839 -18 l  7838 -6 l 
7837 0 l  7825 0 l  7824 -6 l  7824 -18 l  7800 -435 l  7799 -441 l  7799 -6 l 
7798 0 l  7787 0 l  7786 -6 l  7786 -543 l  p ef
8220 -555 m  8232 -555 l  8233 -549 l  8233 -328 l  8279 -328 l  8279 -549 l 
8280 -555 l  8292 -555 l  8293 -549 l  8293 -6 l  8292 0 l  8280 0 l  8279 -6 l 
8279 -256 l  8233 -256 l  8233 -6 l  8232 0 l  8220 0 l  8219 -6 l  8219 -549 l 
p ef
8648 -406 m  8699 -406 l  8700 -400 l  8700 -346 l  8697 -322 l  8692 -292 l 
8682 -221 l  8682 -215 l  8678 -185 l  8673 -155 l  8663 -84 l  8661 -66 l 
8700 -66 l  8701 -60 l  8701 -6 l  8700 0 l  8645 0 l  8644 -6 l  8644 -54 l 
8646 -71 l  8656 -143 l  8660 -167 l  8665 -203 l  8665 -209 l  8675 -280 l 
8679 -304 l  8684 -340 l  8648 -340 l  8647 -346 l  8647 -400 l  p ef
pom
52 lw 13116 2528 m  13116 1667 l  ps
13116 1356 m  13008 1682 l  13225 1682 l  13116 1356 l  p ef
1688 5129 m  25364 5107 l  ps
1635 5535 m  1635 5265 l  1635 4995 l  1635 4723 l  1670 4722 l  1705 4722 l 
1742 4722 l  1742 4993 l  1742 5263 l  1742 5535 l  1707 5535 l  1672 5535 l 
1635 5535 l  p ef
26019 5106 m  25333 4878 l  25334 5335 l  26019 5106 l  p ef
pum
21858 6210 t
78 -113 m  82 -81 97 -59 123 -47 ct 136 -41 151 -38 169 -38 ct 202 -38 226 -48 242 -69 ct 
258 -91 266 -114 266 -140 ct 266 -171 257 -195 238 -211 ct 219 -228 196 -237 170 -237 ct 
150 -237 134 -233 120 -226 ct 106 -218 95 -208 85 -195 ct 37 -198 l  70 -437 l 
301 -437 l  301 -383 l  112 -383 l  93 -259 l  104 -267 113 -273 123 -277 ct 
139 -284 158 -287 180 -287 ct 221 -287 255 -274 284 -248 ct 312 -221 326 -188 326 -148 ct 
326 -106 313 -69 287 -37 ct 261 -5 220 11 163 11 ct 127 11 95 1 67 -19 ct 39 -40 24 -71 20 -113 ct 
p ef
397 -100 m  410 -128 437 -154 477 -177 ct 537 -211 l  563 -227 582 -240 593 -251 ct 
610 -268 618 -288 618 -310 ct 618 -336 610 -356 595 -372 ct 579 -387 559 -394 533 -394 ct 
495 -394 468 -380 453 -351 ct 446 -335 441 -314 440 -286 ct 384 -286 l  384 -325 391 -357 405 -381 ct 
429 -424 472 -446 533 -446 ct 584 -446 621 -432 645 -404 ct 668 -377 680 -346 680 -313 ct 
680 -277 667 -247 642 -221 ct 628 -207 602 -189 564 -168 ct 522 -144 l  502 -133 486 -123 474 -113 ct 
454 -95 441 -75 435 -53 ct 678 -53 l  678 0 l  373 0 l  375 -38 383 -72 397 -100 ct 
p ef
760 -68 m  825 -68 l  825 0 l  760 0 l  p ef
1092 -157 m  1092 -358 l  950 -157 l  p
1093 0 m  1093 -109 l  898 -109 l  898 -163 l  1102 -445 l  1149 -445 l 
1149 -157 l  1214 -157 l  1214 -109 l  1149 -109 l  1149 0 l  p ef
1279 -100 m  1292 -128 1319 -154 1359 -177 ct 1419 -211 l  1445 -227 1464 -240 1475 -251 ct 
1492 -268 1500 -288 1500 -310 ct 1500 -336 1492 -356 1477 -372 ct 1461 -387 1441 -394 1415 -394 ct 
1377 -394 1350 -380 1335 -351 ct 1328 -335 1323 -314 1322 -286 ct 1266 -286 l 
1266 -325 1273 -357 1287 -381 ct 1311 -424 1354 -446 1415 -446 ct 1466 -446 1503 -432 1527 -404 ct 
1550 -377 1562 -346 1562 -313 ct 1562 -277 1549 -247 1524 -221 ct 1510 -207 1484 -189 1446 -168 ct 
1404 -144 l  1384 -133 1368 -123 1356 -113 ct 1336 -95 1323 -75 1317 -53 ct 
1560 -53 l  1560 0 l  1255 0 l  1257 -38 1265 -72 1279 -100 ct p ef
1819 -279 m  1833 -292 1840 -309 1840 -328 ct 1840 -344 1834 -359 1820 -373 ct 
1807 -387 1787 -394 1760 -394 ct 1733 -394 1714 -387 1702 -373 ct 1690 -359 1684 -343 1684 -325 ct 
1684 -304 1691 -287 1707 -276 ct 1722 -264 1741 -258 1762 -258 ct 1786 -258 1806 -265 1819 -279 ct 
p
1829 -59 m  1847 -73 1855 -94 1855 -122 ct 1855 -150 1846 -172 1829 -187 ct 
1811 -202 1789 -209 1761 -209 ct 1734 -209 1713 -202 1696 -187 ct 1679 -171 1671 -150 1671 -123 ct 
1671 -100 1678 -80 1694 -63 ct 1709 -47 1733 -38 1765 -38 ct 1791 -38 1812 -45 1829 -59 ct 
p
1649 -260 m  1633 -276 1625 -298 1625 -324 ct 1625 -357 1637 -386 1661 -410 ct 
1685 -433 1719 -445 1763 -445 ct 1806 -445 1839 -434 1863 -412 ct 1887 -389 1899 -363 1899 -333 ct 
1899 -305 1892 -283 1878 -266 ct 1870 -256 1858 -246 1842 -237 ct 1860 -229 1875 -219 1885 -208 ct 
1905 -187 1915 -161 1915 -127 ct 1915 -88 1901 -55 1875 -28 ct 1849 -1 1812 13 1764 13 ct 
1721 13 1684 1 1654 -22 ct 1624 -46 1609 -80 1609 -125 ct 1609 -151 1616 -174 1629 -193 ct 
1642 -212 1661 -226 1686 -237 ct 1670 -243 1658 -251 1649 -260 ct p ef
2172 -279 m  2186 -292 2193 -309 2193 -328 ct 2193 -344 2187 -359 2173 -373 ct 
2160 -387 2140 -394 2113 -394 ct 2086 -394 2067 -387 2055 -373 ct 2043 -359 2037 -343 2037 -325 ct 
2037 -304 2044 -287 2060 -276 ct 2075 -264 2094 -258 2115 -258 ct 2139 -258 2159 -265 2172 -279 ct 
p
2182 -59 m  2200 -73 2208 -94 2208 -122 ct 2208 -150 2199 -172 2182 -187 ct 
2164 -202 2142 -209 2114 -209 ct 2087 -209 2066 -202 2049 -187 ct 2032 -171 2024 -150 2024 -123 ct 
2024 -100 2031 -80 2047 -63 ct 2062 -47 2086 -38 2118 -38 ct 2144 -38 2165 -45 2182 -59 ct 
p
2002 -260 m  1986 -276 1978 -298 1978 -324 ct 1978 -357 1990 -386 2014 -410 ct 
2038 -433 2072 -445 2116 -445 ct 2159 -445 2192 -434 2216 -412 ct 2240 -389 2252 -363 2252 -333 ct 
2252 -305 2245 -283 2231 -266 ct 2223 -256 2211 -246 2195 -237 ct 2213 -229 2228 -219 2238 -208 ct 
2258 -187 2268 -161 2268 -127 ct 2268 -88 2254 -55 2228 -28 ct 2202 -1 2165 13 2117 13 ct 
2074 13 2037 1 2007 -22 ct 1977 -46 1962 -80 1962 -125 ct 1962 -151 1969 -174 1982 -193 ct 
1995 -212 2014 -226 2039 -237 ct 2023 -243 2011 -251 2002 -260 ct p ef
2512 -332 m  2567 -332 l  2567 -285 l  2580 -301 2592 -313 2603 -321 ct 2621 -333 2642 -340 2666 -340 ct 
2692 -340 2713 -333 2730 -320 ct 2739 -313 2747 -302 2754 -287 ct 2767 -305 2781 -318 2798 -327 ct 
2815 -335 2834 -340 2855 -340 ct 2899 -340 2930 -323 2946 -291 ct 2954 -274 2959 -250 2959 -221 ct 
2959 0 l  2901 0 l  2901 -231 l  2901 -253 2895 -268 2884 -276 ct 2873 -285 2860 -289 2844 -289 ct 
2822 -289 2803 -281 2787 -267 ct 2771 -252 2763 -227 2763 -193 ct 2763 0 l  2707 0 l 
2707 -217 l  2707 -239 2704 -256 2699 -266 ct 2690 -282 2674 -289 2651 -289 ct 
2630 -289 2611 -281 2594 -265 ct 2576 -248 2568 -219 2568 -176 ct 2568 0 l  2512 0 l 
p ef
3074 -104 m  3076 -86 3080 -71 3088 -61 ct 3102 -43 3127 -34 3161 -34 ct 3182 -34 3200 -39 3216 -48 ct 
3232 -57 3239 -71 3239 -90 ct 3239 -104 3233 -115 3220 -122 ct 3212 -127 3196 -132 3173 -138 ct 
3128 -149 l  3100 -156 3079 -164 3066 -173 ct 3042 -188 3030 -209 3030 -235 ct 
3030 -267 3041 -292 3064 -312 ct 3086 -331 3117 -341 3155 -341 ct 3205 -341 3241 -326 3263 -297 ct 
3277 -278 3284 -258 3283 -237 ct 3231 -237 l  3230 -249 3225 -261 3217 -271 ct 
3205 -286 3182 -293 3151 -293 ct 3130 -293 3114 -289 3103 -281 ct 3092 -273 3087 -262 3087 -249 ct 
3087 -235 3094 -223 3108 -214 ct 3116 -209 3128 -205 3144 -201 ct 3181 -192 l 
3221 -182 3248 -172 3262 -163 ct 3284 -149 3295 -127 3295 -96 ct 3295 -67 3283 -41 3261 -20 ct 
3238 2 3204 13 3158 13 ct 3109 13 3074 1 3053 -21 ct 3033 -43 3022 -71 3020 -104 ct 
p ef
14 -422 m  60 -422 l  61 -417 l  61 -369 l  60 -365 l  23 -365 l  22 -360 l 
19 -270 l  19 -256 l  20 -256 l  22 -265 l  24 -270 l  27 -275 l  32 -280 l 
40 -280 l  53 -256 l  57 -242 l  62 -213 l  66 -156 l  66 -133 l  64 -85 l 
61 -57 l  59 -43 l  53 -14 l  40 10 l  26 10 l  22 5 l  17 -5 l  14 -14 l 
7 -47 l  5 -66 l  3 -99 l  3 -109 l  4 -114 l  15 -114 l  16 -109 l  18 -81 l 
18 -76 l  23 -52 l  25 -47 l  28 -43 l  39 -43 l  40 -47 l  43 -52 l  44 -52 l 
49 -76 l  52 -104 l  53 -133 l  53 -142 l  50 -189 l  46 -208 l  43 -218 l 
36 -227 l  32 -227 l  26 -218 l  16 -185 l  13 -185 l  7 -189 l  6 -194 l 
7 -199 l  13 -398 l  13 -417 l  p ef
382 -431 m  391 -431 l  404 -412 l  407 -403 l  411 -384 l  413 -369 l 
417 -317 l  417 -284 l  415 -251 l  414 -242 l  412 -227 l  405 -194 l 
387 -142 l  383 -133 l  382 -133 l  375 -109 l  372 -95 l  370 -81 l  368 -62 l 
368 -57 l  415 -57 l  416 -52 l  416 -5 l  415 0 l  355 0 l  354 -5 l 
354 -24 l  355 -52 l  357 -81 l  360 -109 l  362 -123 l  367 -147 l  377 -180 l 
391 -218 l  392 -218 l  395 -227 l  401 -256 l  403 -275 l  403 -327 l 
402 -332 l  401 -341 l  401 -346 l  397 -365 l  396 -365 l  394 -369 l 
393 -374 l  381 -374 l  378 -369 l  376 -365 l  372 -346 l  370 -327 l 
369 -313 l  369 -280 l  368 -275 l  357 -275 l  356 -280 l  356 -298 l 
360 -365 l  362 -379 l  368 -407 l  374 -422 l  377 -426 l  p ef
713 -71 m  725 -71 l  726 -66 l  726 -5 l  725 0 l  713 0 l  712 -5 l 
712 -66 l  p ef
1097 -431 m  1106 -431 l  1107 -426 l  1107 -156 l  1119 -156 l  1120 -152 l 
1120 -109 l  1119 -104 l  1107 -104 l  1107 -5 l  1106 0 l  1095 0 l  1094 -5 l 
1094 -104 l  1056 -104 l  1055 -109 l  1055 -156 l  1056 -166 l  1092 -398 l 
1095 -422 l  p
1093 -332 m  1067 -156 l  1094 -156 l  1094 -336 l  p ef
1435 -431 m  1444 -431 l  1457 -412 l  1460 -403 l  1464 -384 l  1466 -369 l 
1470 -317 l  1470 -284 l  1468 -251 l  1467 -242 l  1465 -227 l  1458 -194 l 
1440 -142 l  1436 -133 l  1435 -133 l  1428 -109 l  1425 -95 l  1423 -81 l 
1421 -62 l  1421 -57 l  1468 -57 l  1469 -52 l  1469 -5 l  1468 0 l  1408 0 l 
1407 -5 l  1407 -24 l  1408 -52 l  1410 -81 l  1413 -109 l  1415 -123 l 
1420 -147 l  1430 -180 l  1444 -218 l  1445 -218 l  1448 -227 l  1454 -256 l 
1456 -275 l  1456 -327 l  1455 -332 l  1454 -341 l  1454 -346 l  1450 -365 l 
1449 -365 l  1447 -369 l  1446 -374 l  1434 -374 l  1431 -369 l  1429 -365 l 
1425 -346 l  1423 -327 l  1422 -313 l  1422 -280 l  1421 -275 l  1410 -275 l 
1409 -280 l  1409 -298 l  1413 -365 l  1415 -379 l  1421 -407 l  1427 -422 l 
1430 -426 l  p ef
1787 -431 m  1793 -431 l  1806 -412 l  1809 -403 l  1812 -388 l  1815 -369 l 
1818 -322 l  1818 -317 l  1817 -289 l  1816 -275 l  1815 -265 l  1808 -232 l 
1807 -232 l  1807 -227 l  1808 -223 l  1810 -218 l  1811 -218 l  1817 -189 l 
1821 -128 l  1821 -118 l  1820 -90 l  1819 -76 l  1816 -47 l  1808 -10 l 
1802 5 l  1798 10 l  1790 14 l  1789 14 l  1780 5 l  1771 -10 l  1768 -19 l 
1763 -43 l  1761 -57 l  1760 -66 l  1759 -81 l  1758 -104 l  1758 -142 l 
1763 -194 l  1767 -213 l  1773 -227 l  1772 -232 l  1771 -232 l  1768 -242 l 
1764 -260 l  1761 -298 l  1761 -322 l  1762 -346 l  1765 -374 l  1768 -393 l 
1769 -398 l  1773 -412 l  p
1779 -365 m  1776 -351 l  1776 -346 l  1775 -332 l  1774 -327 l  1774 -298 l 
1775 -284 l  1780 -260 l  1781 -260 l  1785 -256 l  1786 -251 l  1793 -251 l 
1796 -256 l  1800 -265 l  1802 -275 l  1804 -294 l  1805 -313 l  1805 -317 l 
1804 -322 l  1803 -341 l  1803 -346 l  1799 -365 l  1798 -365 l  1796 -369 l 
1795 -374 l  1783 -374 l  p
1781 -194 m  1779 -189 l  1773 -161 l  1773 -152 l  1772 -128 l  1771 -123 l 
1771 -118 l  1772 -95 l  1774 -76 l  1779 -52 l  1781 -47 l  1784 -43 l 
1796 -43 l  1797 -47 l  1801 -57 l  1802 -57 l  1805 -71 l  1807 -90 l 
1808 -114 l  1808 -123 l  1807 -128 l  1806 -152 l  1806 -161 l  1800 -189 l 
1799 -189 l  1795 -194 l  1794 -199 l  1784 -199 l  p ef
2139 -431 m  2145 -431 l  2158 -412 l  2161 -403 l  2164 -388 l  2167 -369 l 
2170 -322 l  2170 -317 l  2169 -289 l  2168 -275 l  2167 -265 l  2160 -232 l 
2159 -232 l  2159 -227 l  2160 -223 l  2162 -218 l  2163 -218 l  2169 -189 l 
2173 -128 l  2173 -118 l  2172 -90 l  2171 -76 l  2168 -47 l  2160 -10 l 
2154 5 l  2150 10 l  2142 14 l  2141 14 l  2132 5 l  2123 -10 l  2120 -19 l 
2115 -43 l  2113 -57 l  2112 -66 l  2111 -81 l  2110 -104 l  2110 -142 l 
2115 -194 l  2119 -213 l  2125 -227 l  2124 -232 l  2123 -232 l  2120 -242 l 
2116 -260 l  2113 -298 l  2113 -322 l  2114 -346 l  2117 -374 l  2120 -393 l 
2121 -398 l  2125 -412 l  p
2131 -365 m  2128 -351 l  2128 -346 l  2127 -332 l  2126 -327 l  2126 -298 l 
2127 -284 l  2132 -260 l  2133 -260 l  2137 -256 l  2138 -251 l  2145 -251 l 
2148 -256 l  2152 -265 l  2154 -275 l  2156 -294 l  2157 -313 l  2157 -317 l 
2156 -322 l  2155 -341 l  2155 -346 l  2151 -365 l  2150 -365 l  2148 -369 l 
2147 -374 l  2135 -374 l  p
2133 -194 m  2131 -189 l  2125 -161 l  2125 -152 l  2124 -128 l  2123 -123 l 
2123 -118 l  2124 -95 l  2126 -76 l  2131 -52 l  2133 -47 l  2136 -43 l 
2148 -43 l  2149 -47 l  2153 -57 l  2154 -57 l  2157 -71 l  2159 -90 l 
2160 -114 l  2160 -123 l  2159 -128 l  2158 -152 l  2158 -161 l  2152 -189 l 
2151 -189 l  2147 -194 l  2146 -199 l  2136 -199 l  p ef
2842 -327 m  2854 -327 l  2855 -322 l  2858 -317 l  2859 -317 l  2865 -289 l 
2865 -284 l  2866 -280 l  2867 -284 l  2867 -289 l  2870 -303 l  2874 -317 l 
2880 -327 l  2892 -327 l  2899 -313 l  2903 -294 l  2905 -280 l  2906 -270 l 
2907 -251 l  2907 -5 l  2906 0 l  2896 0 l  2895 -5 l  2895 -227 l  2894 -251 l 
2890 -270 l  2888 -275 l  2879 -275 l  2875 -265 l  2870 -242 l  2870 -237 l 
2869 -218 l  2868 -213 l  2868 -5 l  2867 0 l  2856 0 l  2855 -5 l  2855 -171 l 
2856 -175 l  2856 -204 l  2855 -246 l  2854 -256 l  2851 -270 l  2849 -275 l 
2841 -275 l  2838 -270 l  2836 -265 l  2832 -246 l  2830 -227 l  2829 -213 l 
2829 -5 l  2828 0 l  2817 0 l  2816 -5 l  2816 -317 l  2817 -322 l  2827 -322 l 
2828 -317 l  2828 -280 l  2834 -308 l  2837 -317 l  2839 -322 l  p ef
3188 -332 m  3193 -332 l  3200 -327 l  3207 -313 l  3215 -275 l  3215 -270 l 
3216 -256 l  3217 -251 l  3217 -232 l  3216 -227 l  3206 -227 l  3205 -232 l 
3205 -246 l  3203 -260 l  3201 -270 l  3199 -270 l  3196 -275 l  3195 -280 l 
3185 -280 l  3181 -270 l  3178 -256 l  3178 -223 l  3181 -208 l  3183 -204 l 
3210 -166 l  3215 -152 l  3216 -147 l  3218 -133 l  3219 -118 l  3219 -71 l 
3218 -57 l  3216 -38 l  3210 -10 l  3204 5 l  3200 10 l  3192 14 l  3191 14 l 
3174 -5 l  3167 -38 l  3165 -57 l  3163 -90 l  3163 -99 l  3164 -104 l 
3174 -104 l  3175 -99 l  3177 -71 l  3177 -66 l  3181 -47 l  3182 -47 l 
3186 -43 l  3187 -38 l  3196 -38 l  3200 -43 l  3204 -52 l  3206 -62 l 
3207 -71 l  3207 -99 l  3206 -109 l  3204 -118 l  3178 -152 l  3172 -166 l 
3167 -189 l  3167 -194 l  3166 -208 l  3165 -213 l  3165 -246 l  3166 -260 l 
3168 -280 l  3175 -313 l  p ef
pom
51 lw 13217 4734 m  13217 5437 l  ps
12989 4734 m  12989 5437 l  ps
102 lw 24593 4777 m  24593 5480 l  ps
pum
11872 6322 t
91 -50 m  364 -50 l  226 -391 l  p
195 -448 m  261 -448 l  446 0 l  13 0 l  p ef
510 -425 m  567 -425 l  567 -332 l  620 -332 l  620 -286 l  567 -286 l 
567 -70 l  567 -58 570 -50 578 -47 ct 583 -44 590 -43 600 -43 ct 603 -43 606 -43 609 -43 ct 
612 -43 615 -44 620 -44 ct 620 0 l  613 2 606 3 600 4 ct 593 5 585 5 577 5 ct 551 5 533 -1 524 -15 ct 
515 -28 510 -45 510 -67 ct 510 -286 l  465 -286 l  465 -332 l  510 -332 l 
p ef
pom
pum
12507 6322 t
527 -255 m  527 -203 l  204 -203 l  204 -255 l  p
527 -122 m  527 -69 l  204 -69 l  204 -122 l  p ef
1018 -373 m  1038 -336 1048 -286 1048 -223 ct 1048 -162 1039 -112 1021 -73 ct 
995 -16 953 12 893 12 ct 840 12 800 -11 774 -57 ct 753 -96 742 -148 742 -213 ct 
742 -263 748 -307 761 -343 ct 786 -410 830 -444 894 -444 ct 951 -444 993 -420 1018 -373 ct 
p
962 -77 m  979 -103 988 -151 988 -220 ct 988 -271 982 -312 969 -345 ct 957 -377 933 -394 897 -394 ct 
864 -394 840 -378 825 -347 ct 810 -317 802 -271 802 -211 ct 802 -166 807 -129 817 -102 ct 
832 -60 857 -39 893 -39 ct 922 -39 945 -52 962 -77 ct p ef
1129 -68 m  1194 -68 l  1194 0 l  1129 0 l  p ef
1462 -157 m  1462 -358 l  1320 -157 l  p
1463 0 m  1463 -109 l  1268 -109 l  1268 -163 l  1472 -445 l  1519 -445 l 
1519 -157 l  1584 -157 l  1584 -109 l  1519 -109 l  1519 0 l  p ef
1901 -373 m  1921 -336 1931 -286 1931 -223 ct 1931 -162 1922 -112 1904 -73 ct 
1878 -16 1836 12 1776 12 ct 1723 12 1683 -11 1657 -57 ct 1636 -96 1625 -148 1625 -213 ct 
1625 -263 1631 -307 1644 -343 ct 1669 -410 1713 -444 1777 -444 ct 1834 -444 1876 -420 1901 -373 ct 
p
1845 -77 m  1862 -103 1871 -151 1871 -220 ct 1871 -271 1865 -312 1852 -345 ct 
1840 -377 1816 -394 1780 -394 ct 1747 -394 1723 -378 1708 -347 ct 1693 -317 1685 -271 1685 -211 ct 
1685 -166 1690 -129 1700 -102 ct 1715 -60 1740 -39 1776 -39 ct 1805 -39 1828 -52 1845 -77 ct 
p ef
2042 -107 m  2044 -76 2056 -55 2078 -43 ct 2089 -37 2102 -34 2116 -34 ct 2143 -34 2166 -45 2185 -67 ct 
2203 -90 2217 -135 2225 -203 ct 2212 -183 2197 -169 2179 -161 ct 2160 -153 2141 -149 2120 -149 ct 
2077 -149 2043 -163 2018 -189 ct 1993 -216 1981 -250 1981 -292 ct 1981 -333 1993 -368 2018 -399 ct 
2042 -429 2078 -445 2126 -445 ct 2191 -445 2236 -415 2260 -357 ct 2274 -325 2281 -285 2281 -237 ct 
2281 -183 2273 -134 2256 -92 ct 2229 -23 2183 12 2119 12 ct 2075 12 2042 1 2020 -22 ct 
1997 -44 1986 -73 1986 -107 ct p
2188 -220 m  2206 -235 2215 -260 2215 -297 ct 2215 -329 2207 -354 2190 -370 ct 
2174 -386 2153 -394 2128 -394 ct 2100 -394 2079 -385 2063 -366 ct 2047 -348 2039 -324 2039 -293 ct 
2039 -264 2046 -241 2060 -224 ct 2074 -207 2096 -198 2127 -198 ct 2149 -198 2169 -206 2188 -220 ct 
p ef
2600 -407 m  2620 -382 2630 -355 2630 -328 ct 2575 -328 l  2571 -345 2566 -359 2559 -369 ct 
2545 -388 2525 -397 2498 -397 ct 2466 -397 2442 -382 2423 -354 ct 2405 -325 2395 -283 2393 -230 ct 
2405 -249 2421 -263 2441 -272 ct 2459 -280 2479 -284 2500 -284 ct 2538 -284 2570 -272 2598 -249 ct 
2626 -225 2639 -189 2639 -142 ct 2639 -102 2626 -66 2600 -35 ct 2574 -4 2536 11 2488 11 ct 
2446 11 2410 -4 2380 -36 ct 2350 -67 2335 -120 2335 -195 ct 2335 -250 2342 -297 2355 -335 ct 
2381 -409 2428 -446 2497 -446 ct 2546 -446 2581 -433 2600 -407 ct p
2559 -68 m  2573 -87 2580 -111 2580 -138 ct 2580 -160 2574 -182 2561 -203 ct 
2548 -223 2524 -233 2490 -233 ct 2466 -233 2445 -226 2427 -210 ct 2409 -194 2400 -170 2400 -138 ct 
2400 -110 2408 -86 2424 -67 ct 2441 -48 2464 -38 2493 -38 ct 2522 -38 2544 -48 2559 -68 ct 
p ef
2881 -332 m  2936 -332 l  2936 -285 l  2949 -301 2961 -313 2972 -321 ct 2990 -333 3011 -340 3035 -340 ct 
3061 -340 3082 -333 3099 -320 ct 3108 -313 3116 -302 3123 -287 ct 3136 -305 3150 -318 3167 -327 ct 
3184 -335 3203 -340 3224 -340 ct 3268 -340 3299 -323 3315 -291 ct 3323 -274 3328 -250 3328 -221 ct 
3328 0 l  3270 0 l  3270 -231 l  3270 -253 3264 -268 3253 -276 ct 3242 -285 3229 -289 3213 -289 ct 
3191 -289 3172 -281 3156 -267 ct 3140 -252 3132 -227 3132 -193 ct 3132 0 l  3076 0 l 
3076 -217 l  3076 -239 3073 -256 3068 -266 ct 3059 -282 3043 -289 3020 -289 ct 
2999 -289 2980 -281 2963 -265 ct 2945 -248 2937 -219 2937 -176 ct 2937 0 l  2881 0 l 
p ef
3443 -104 m  3445 -86 3449 -71 3457 -61 ct 3471 -43 3496 -34 3530 -34 ct 3551 -34 3569 -39 3585 -48 ct 
3601 -57 3608 -71 3608 -90 ct 3608 -104 3602 -115 3589 -122 ct 3581 -127 3565 -132 3542 -138 ct 
3497 -149 l  3469 -156 3448 -164 3435 -173 ct 3411 -188 3399 -209 3399 -235 ct 
3399 -267 3410 -292 3433 -312 ct 3455 -331 3486 -341 3524 -341 ct 3574 -341 3610 -326 3632 -297 ct 
3646 -278 3653 -258 3652 -237 ct 3600 -237 l  3599 -249 3594 -261 3586 -271 ct 
3574 -286 3551 -293 3520 -293 ct 3499 -293 3483 -289 3472 -281 ct 3461 -273 3456 -262 3456 -249 ct 
3456 -235 3463 -223 3477 -214 ct 3485 -209 3497 -205 3513 -201 ct 3550 -192 l 
3590 -182 3617 -172 3631 -163 ct 3653 -149 3664 -127 3664 -96 ct 3664 -67 3652 -41 3630 -20 ct 
3607 2 3573 13 3527 13 ct 3478 13 3443 1 3422 -21 ct 3402 -43 3391 -71 3389 -104 ct 
p ef
185 -246 m  249 -246 l  250 -242 l  250 -199 l  249 -194 l  185 -194 l 
184 -199 l  184 -242 l  p
185 -123 m  249 -123 l  250 -118 l  250 -71 l  249 -66 l  185 -66 l  184 -71 l 
184 -118 l  p ef
563 -426 m  578 -426 l  587 -407 l  594 -374 l  598 -332 l  602 -242 l 
602 -185 l  600 -118 l  597 -76 l  595 -57 l  593 -43 l  586 -10 l  583 0 l 
581 0 l  578 5 l  577 10 l  563 10 l  560 5 l  554 -10 l  548 -38 l  544 -76 l 
539 -161 l  539 -251 l  540 -284 l  542 -322 l  546 -365 l  549 -384 l 
554 -407 l  p
562 -365 m  558 -346 l  555 -317 l  554 -303 l  552 -242 l  552 -171 l 
556 -95 l  558 -71 l  562 -52 l  563 -52 l  565 -47 l  566 -43 l  574 -43 l 
577 -47 l  580 -57 l  583 -71 l  585 -85 l  588 -137 l  589 -189 l  589 -227 l 
588 -280 l  586 -322 l  583 -351 l  580 -365 l  579 -365 l  577 -369 l 
576 -374 l  566 -374 l  p ef
725 -71 m  737 -71 l  738 -66 l  738 -5 l  737 0 l  725 0 l  724 -5 l 
724 -66 l  p ef
937 -431 m  946 -431 l  947 -426 l  947 -156 l  959 -156 l  960 -152 l 
960 -109 l  959 -104 l  947 -104 l  947 -5 l  946 0 l  935 0 l  934 -5 l 
934 -104 l  896 -104 l  895 -109 l  895 -156 l  896 -166 l  932 -398 l 
935 -422 l  p
933 -332 m  907 -156 l  934 -156 l  934 -336 l  p ef
1098 -426 m  1114 -426 l  1123 -407 l  1130 -374 l  1134 -332 l  1138 -242 l 
1138 -185 l  1136 -118 l  1133 -76 l  1131 -57 l  1129 -43 l  1122 -10 l 
1119 0 l  1116 0 l  1114 5 l  1112 10 l  1098 10 l  1095 5 l  1089 -10 l 
1083 -38 l  1079 -76 l  1074 -161 l  1074 -251 l  1075 -284 l  1077 -322 l 
1081 -365 l  1084 -384 l  1089 -407 l  p
1097 -365 m  1093 -346 l  1090 -317 l  1089 -303 l  1087 -242 l  1087 -171 l 
1091 -95 l  1093 -71 l  1097 -52 l  1098 -52 l  1100 -47 l  1101 -43 l 
1109 -43 l  1112 -47 l  1115 -57 l  1119 -71 l  1121 -85 l  1124 -137 l 
1125 -189 l  1125 -227 l  1124 -280 l  1122 -322 l  1119 -351 l  1115 -365 l 
1115 -365 l  1112 -369 l  1111 -374 l  1101 -374 l  p ef
1282 -431 m  1285 -431 l  1292 -426 l  1299 -412 l  1302 -403 l  1307 -379 l 
1309 -365 l  1313 -322 l  1315 -270 l  1315 -185 l  1312 -123 l  1307 -57 l 
1305 -43 l  1298 -10 l  1289 10 l  1274 10 l  1270 5 l  1266 -5 l  1262 -19 l 
1261 -24 l  1255 -76 l  1255 -104 l  1256 -109 l  1266 -109 l  1267 -104 l 
1267 -90 l  1268 -76 l  1269 -66 l  1273 -47 l  1277 -38 l  1285 -38 l 
1286 -43 l  1289 -47 l  1290 -47 l  1293 -57 l  1295 -66 l  1297 -85 l 
1302 -156 l  1302 -185 l  1297 -161 l  1285 -142 l  1278 -142 l  1273 -147 l 
1270 -152 l  1268 -156 l  1265 -166 l  1259 -194 l  1257 -208 l  1255 -227 l 
1254 -246 l  1254 -317 l  1258 -365 l  1260 -379 l  1266 -407 l  1272 -422 l 
1275 -426 l  p
1274 -365 m  1269 -341 l  1266 -298 l  1266 -265 l  1268 -232 l  1270 -218 l 
1272 -208 l  1279 -194 l  1287 -194 l  1290 -199 l  1294 -208 l  1298 -227 l 
1300 -246 l  1301 -265 l  1301 -303 l  1300 -327 l  1299 -336 l  1297 -351 l 
1295 -360 l  1292 -369 l  1289 -374 l  1278 -374 l  p ef
1461 -431 m  1471 -431 l  1483 -412 l  1488 -388 l  1490 -374 l  1493 -341 l 
1493 -317 l  1492 -313 l  1482 -313 l  1481 -317 l  1481 -322 l  1480 -336 l 
1478 -355 l  1475 -369 l  1474 -369 l  1471 -374 l  1470 -379 l  1463 -379 l 
1460 -374 l  1456 -365 l  1453 -351 l  1451 -336 l  1449 -317 l  1447 -289 l 
1446 -265 l  1446 -232 l  1450 -251 l  1453 -260 l  1457 -270 l  1460 -275 l 
1473 -275 l  1483 -256 l  1491 -218 l  1495 -171 l  1495 -109 l  1494 -90 l 
1490 -52 l  1488 -38 l  1485 -24 l  1481 -10 l  1475 5 l  1471 10 l  1458 10 l 
1457 5 l  1451 -5 l  1450 -5 l  1447 -14 l  1439 -52 l  1436 -81 l  1432 -137 l 
1432 -246 l  1439 -351 l  1442 -374 l  1449 -407 l  1457 -426 l  p
1460 -218 m  1457 -213 l  1455 -213 l  1449 -185 l  1449 -180 l  1448 -161 l 
1447 -156 l  1447 -109 l  1448 -95 l  1450 -76 l  1455 -52 l  1456 -52 l 
1459 -47 l  1460 -43 l  1470 -43 l  1473 -47 l  1475 -52 l  1478 -66 l 
1480 -81 l  1481 -90 l  1482 -104 l  1482 -161 l  1479 -194 l  1476 -208 l 
1473 -218 l  1469 -223 l  1461 -223 l  p ef
1819 -327 m  1831 -327 l  1832 -322 l  1835 -317 l  1836 -317 l  1842 -289 l 
1842 -284 l  1843 -280 l  1844 -284 l  1844 -289 l  1847 -303 l  1851 -317 l 
1857 -327 l  1869 -327 l  1876 -313 l  1880 -294 l  1882 -280 l  1883 -270 l 
1884 -251 l  1884 -5 l  1883 0 l  1873 0 l  1872 -5 l  1872 -227 l  1871 -251 l 
1867 -270 l  1865 -275 l  1856 -275 l  1852 -265 l  1847 -242 l  1847 -237 l 
1846 -218 l  1845 -213 l  1845 -5 l  1844 0 l  1833 0 l  1832 -5 l  1832 -171 l 
1833 -175 l  1833 -204 l  1832 -246 l  1831 -256 l  1828 -270 l  1826 -275 l 
1818 -275 l  1815 -270 l  1813 -265 l  1809 -246 l  1807 -227 l  1806 -213 l 
1806 -5 l  1805 0 l  1794 0 l  1793 -5 l  1793 -317 l  1794 -322 l  1804 -322 l 
1805 -317 l  1805 -280 l  1811 -308 l  1814 -317 l  1816 -322 l  p ef
1992 -332 m  1997 -332 l  2004 -327 l  2011 -313 l  2019 -275 l  2019 -270 l 
2020 -256 l  2021 -251 l  2021 -232 l  2020 -227 l  2010 -227 l  2009 -232 l 
2009 -246 l  2007 -260 l  2005 -270 l  2003 -270 l  2000 -275 l  1999 -280 l 
1989 -280 l  1985 -270 l  1982 -256 l  1982 -223 l  1985 -208 l  1987 -204 l 
2014 -166 l  2019 -152 l  2020 -147 l  2022 -133 l  2023 -118 l  2023 -71 l 
2022 -57 l  2020 -38 l  2014 -10 l  2008 5 l  2004 10 l  1996 14 l  1995 14 l 
1978 -5 l  1971 -38 l  1969 -57 l  1967 -90 l  1967 -99 l  1968 -104 l 
1978 -104 l  1979 -99 l  1981 -71 l  1981 -66 l  1985 -47 l  1986 -47 l 
1990 -43 l  1991 -38 l  2000 -38 l  2004 -43 l  2008 -52 l  2010 -62 l 
2011 -71 l  2011 -99 l  2010 -109 l  2008 -118 l  1982 -152 l  1976 -166 l 
1971 -189 l  1971 -194 l  1970 -208 l  1969 -213 l  1969 -246 l  1970 -260 l 
1972 -280 l  1979 -313 l  p ef
pom
gr
gs
0 0 m 27939 0 l 27939 6857 l 0 6857 l 0 0 l eoclip newpath
gr
gr
0 6858 t 
pom
count op_count sub {pop} repeat countdictstack dict_count sub {end} repeat b4_inc_state restore
%%PageTrailer
%%Trailer
%%EOF
